//Maya ASCII 2014 scene
//Name: plug.ma
//Last modified: Sat, Aug 23, 2014 08:54:29 PM
//Codeset: 1252
requires maya "2014";
currentUnit -l centimeter -a degree -t film;
fileInfo "application" "maya";
fileInfo "product" "Maya 2014";
fileInfo "version" "2014";
fileInfo "cutIdentifier" "201307170459-880822";
fileInfo "osv" "Microsoft Windows 7 Business Edition, 64-bit Windows 7 Service Pack 1 (Build 7601)\n";
createNode transform -s -n "persp";
	setAttr ".v" no;
	setAttr ".t" -type "double3" 1.5157155547365651 0.6452441906815809 0.11064892699381126 ;
	setAttr ".r" -type "double3" -15.338352729516405 802.99999999997317 -1.3049035108352884e-014 ;
createNode camera -s -n "perspShape" -p "persp";
	setAttr -k off ".v" no;
	setAttr ".fl" 34.999999999999986;
	setAttr ".coi" 1.6233864205356088;
	setAttr ".imn" -type "string" "persp";
	setAttr ".den" -type "string" "persp_depth";
	setAttr ".man" -type "string" "persp_mask";
	setAttr ".hc" -type "string" "viewSet -p %camera";
createNode transform -s -n "top";
	setAttr ".v" no;
	setAttr ".t" -type "double3" 0 100.1 0 ;
	setAttr ".r" -type "double3" -89.999999999999986 0 0 ;
createNode camera -s -n "topShape" -p "top";
	setAttr -k off ".v" no;
	setAttr ".rnd" no;
	setAttr ".coi" 100.1;
	setAttr ".ow" 30;
	setAttr ".imn" -type "string" "top";
	setAttr ".den" -type "string" "top_depth";
	setAttr ".man" -type "string" "top_mask";
	setAttr ".hc" -type "string" "viewSet -t %camera";
	setAttr ".o" yes;
createNode transform -s -n "front";
	setAttr ".v" no;
	setAttr ".t" -type "double3" 0 0 100.1 ;
createNode camera -s -n "frontShape" -p "front";
	setAttr -k off ".v" no;
	setAttr ".rnd" no;
	setAttr ".coi" 100.1;
	setAttr ".ow" 30;
	setAttr ".imn" -type "string" "front";
	setAttr ".den" -type "string" "front_depth";
	setAttr ".man" -type "string" "front_mask";
	setAttr ".hc" -type "string" "viewSet -f %camera";
	setAttr ".o" yes;
createNode transform -s -n "side";
	setAttr ".v" no;
	setAttr ".t" -type "double3" 100.1 0 0 ;
	setAttr ".r" -type "double3" 0 89.999999999999986 0 ;
createNode camera -s -n "sideShape" -p "side";
	setAttr -k off ".v" no;
	setAttr ".rnd" no;
	setAttr ".coi" 100.1;
	setAttr ".ow" 30;
	setAttr ".imn" -type "string" "side";
	setAttr ".den" -type "string" "side_depth";
	setAttr ".man" -type "string" "side_mask";
	setAttr ".hc" -type "string" "viewSet -s %camera";
	setAttr ".o" yes;
createNode transform -n "Plug";
createNode mesh -n "PlugShape" -p "Plug";
	setAttr -k off ".v";
	setAttr ".vir" yes;
	setAttr ".vif" yes;
	setAttr ".uvst[0].uvsn" -type "string" "map1";
	setAttr -s 84 ".uvst[0].uvsp[0:83]" -type "float2" 0.39918768 0.75969166
		 0.60081226 0.99030828 0.13469169 0.11122812 0.1346917 0.013771877 0.36530831 0.013771884
		 0.86530828 0.013771884 0.63469166 0.11122812 0.63469172 0.013771877 0.40006346 0.14165311
		 0.58361596 0.23334689 0.13691403 0.14475641 0.35664991 0.14475639 0.35664991 0.23024361
		 0.63691401 0.14475641 0.85664988 0.14475639 0.85664994 0.23024361 0.63691401 0.23024361
		 0.5999366 0.60834694 0.41319841 0.60834694 0.4163841 0.51665306 0.39918768 0.99030828
		 0.375 0.99030828 0.375 0.75969166 0.375 0.013771862 0.375 0.11122812 0.625 0.99030828
		 0.60081226 0.75969172 0.625 0.75969172 0.60081232 0.013771874 0.40006346 0.23334689
		 0.375 0.24033649 0.375 0.1564813 0.375 0.25730184 0.38209456 0.49290544 0.62499994
		 0.24281219 0.58680159 0.14165309 0.625 0.15998663 0.58506191 0.26492727 0.13691404
		 0.23024361 0.125 0.23888759 0.125 0.14803432 0.41316289 0.5 0.58506197 0.48507279
		 0.59552079 0.5 0.5999366 0.51665312 0.625 0.50966352 0.625 0.59351873 0.39918768
		 0.75 0.625 0.73622817 0.625 0.63877189 0.36530828 0.11122812 0.35793644 0.125 0.1409733
		 0.11701335 0.4242782 0.125 0.60081232 0.11122812 0.64097333 0.11701335 0.86530828
		 0.11122812 0.85793644 0.125 0.39918774 0.63877183 0.57572186 0.625 0.39918768 -1.8626451e-009
		 0.39918774 0.01377186 0.60081232 0 0.625 0.013771884 0.40447927 0.25 0.41493806 0.26492727
		 0.58683705 0.25 0.61790538 0.25709459 0.41493809 0.48507279 0.625 0.49269822 0.375
		 0.73622817 0.39918771 0.73622817 0.60081232 0.73622811 0.60081232 0.74999994 0.38186181
		 0.12156911 0.39918771 0.11122812 0.625 0.11122812 0.6179446 0.125 0.59592527 0.125
		 0.40407473 0.62500006 0.375 0.63877183 0.38205543 0.625 0.61813825 0.62843096 0.60081232
		 0.63877183;
	setAttr ".cuvs" -type "string" "map1";
	setAttr ".dcc" -type "string" "Ambient+Diffuse";
	setAttr ".covm[0]"  0 1 1;
	setAttr ".cdvm[0]"  0 1 1;
	setAttr -s 40 ".vt[0:39]"  -0.20034343 -0.045305084 0.4612332 -0.16157664 -0.084071875 0.4612332
		 -0.16157664 -0.045305084 0.5 0.16157664 -0.084071875 0.4612332 0.20034343 -0.045305084 0.4612332
		 0.16157664 -0.045305084 0.5 -0.13382158 0.46329951 0.30469266 -0.091689661 0.46906435 0.34799501
		 -0.08256726 0.5 0.2858648 0.091689661 0.46906435 0.34799501 0.13382158 0.46329951 0.30469266
		 0.08256726 0.5 0.2858648 -0.091689661 0.46906435 -0.34799501 -0.13382158 0.46329951 -0.30469266
		 -0.08256726 0.5 -0.2858648 0.13382158 0.46329951 -0.30469266 0.091689661 0.46906435 -0.34799501
		 0.08256726 0.5 -0.2858648 -0.20034343 -0.045305084 -0.4612332 -0.16157664 -0.045305084 -0.5
		 -0.16157664 -0.084071875 -0.4612332 0.16157664 -0.045305084 -0.5 0.20034343 -0.045305084 -0.4612332
		 0.16157664 -0.084071875 -0.4612332 -0.1878559 0.30449414 0.42462671 -0.20034343 0.22902687 0.4612332
		 -0.16157664 0.22902687 0.5 -0.14964703 0.2987293 0.47663659 0.20034343 0.22902687 0.4612332
		 0.1878559 0.30449414 0.42462671 0.14964703 0.2987293 0.47663659 0.16157664 0.22902687 0.5
		 -0.14964703 0.2987293 -0.47663659 -0.16157664 0.22902687 -0.5 -0.20034343 0.22902687 -0.4612332
		 -0.1878559 0.30449414 -0.42462671 0.1878559 0.30449414 -0.42462671 0.20034343 0.22902687 -0.4612332
		 0.16157664 0.22902687 -0.5 0.14964703 0.2987293 -0.47663659;
	setAttr -s 80 ".ed[0:79]"  20 23 1 23 3 1 3 1 1 1 20 1 5 31 1 31 26 1
		 26 2 1 2 5 1 25 34 1 34 18 1 18 0 1 0 25 1 22 37 1 37 28 1 28 4 1 4 22 1 27 30 1
		 30 9 1 9 7 1 7 27 1 11 17 1 17 14 1 14 8 1 8 11 1 13 35 1 35 24 1 24 6 1 6 13 1 29 36 1
		 36 15 1 15 10 1 10 29 1 16 39 1 39 32 1 32 12 1 12 16 1 33 38 1 38 21 1 21 19 1 19 33 1
		 1 0 1 18 20 1 2 1 1 3 5 1 0 2 1 26 25 1 4 3 1 23 22 1 5 4 1 28 31 1 7 6 1 24 27 1
		 8 7 1 9 11 1 6 8 1 14 13 1 10 9 1 30 29 1 11 10 1 15 17 1 13 12 1 32 35 1 12 14 1
		 17 16 1 16 15 1 36 39 1 19 18 1 34 33 1 20 19 1 21 23 1 22 21 1 38 37 1 25 24 1 35 34 1
		 27 26 1 31 30 1 29 28 1 37 36 1 33 32 1 39 38 1;
	setAttr -s 42 -ch 160 ".fc[0:41]" -type "polyFaces" 
		f 4 0 1 2 3
		mu 0 4 0 26 1 20
		f 4 4 5 6 7
		mu 0 4 28 54 75 61
		f 4 8 9 10 11
		mu 0 4 50 2 3 4
		f 4 12 13 14 15
		mu 0 4 5 56 6 7
		f 4 16 17 18 19
		mu 0 4 8 35 9 29
		f 4 20 21 22 23
		mu 0 4 37 42 68 65
		f 4 24 25 26 27
		mu 0 4 38 10 11 12
		f 4 28 29 30 31
		mu 0 4 13 14 15 16
		f 4 32 33 34 35
		mu 0 4 44 17 18 19
		f 4 36 37 38 39
		mu 0 4 58 83 72 71
		f 4 40 -11 41 -4
		mu 0 4 20 21 22 0
		f 4 42 -3 43 -8
		mu 0 4 61 60 62 28
		f 4 44 -7 45 -12
		mu 0 4 23 61 75 24
		f 4 46 -2 47 -16
		mu 0 4 25 1 26 27
		f 4 48 -15 49 -5
		mu 0 4 28 63 76 54
		f 4 50 -27 51 -20
		mu 0 4 29 30 31 8
		f 4 52 -19 53 -24
		mu 0 4 65 64 66 37
		f 4 54 -23 55 -28
		mu 0 4 32 65 68 33
		f 4 56 -18 57 -32
		mu 0 4 34 9 35 36
		f 4 58 -31 59 -21
		mu 0 4 37 67 69 42
		f 4 60 -35 61 -25
		mu 0 4 38 39 40 10
		f 4 62 -22 63 -36
		mu 0 4 41 68 42 43
		f 4 64 -30 65 -33
		mu 0 4 44 45 46 17
		f 4 66 -10 67 -40
		mu 0 4 71 70 80 58
		f 4 68 -39 69 -1
		mu 0 4 47 71 72 73
		f 4 70 -38 71 -13
		mu 0 4 48 72 83 49
		f 4 72 -26 73 -9
		mu 0 4 50 51 52 2
		f 4 74 -6 75 -17
		mu 0 4 53 75 54 78
		f 4 76 -14 77 -29
		mu 0 4 55 6 56 57
		f 4 78 -34 79 -37
		mu 0 4 58 79 59 83
		f 3 -41 -43 -45
		mu 0 3 23 60 61
		f 3 -47 -49 -44
		mu 0 3 62 63 28
		f 3 -51 -53 -55
		mu 0 3 32 64 65
		f 3 -57 -59 -54
		mu 0 3 66 67 37
		f 3 -61 -56 -63
		mu 0 3 41 33 68
		f 3 -65 -64 -60
		mu 0 3 69 43 42
		f 3 -67 -69 -42
		mu 0 3 70 71 47
		f 3 -71 -48 -70
		mu 0 3 72 48 73
		f 4 -73 -46 -75 -52
		mu 0 4 74 24 75 53
		f 4 -77 -58 -76 -50
		mu 0 4 76 77 78 54
		f 4 -79 -68 -74 -62
		mu 0 4 79 58 80 81
		f 4 -78 -72 -80 -66
		mu 0 4 82 49 83 59;
	setAttr ".cd" -type "dataPolyComponent" Index_Data Edge 0 ;
	setAttr ".cvd" -type "dataPolyComponent" Index_Data Vertex 0 ;
	setAttr ".hfd" -type "dataPolyComponent" Index_Data Face 0 ;
createNode transform -n "pCube2" -p "Plug";
	setAttr ".rp" -type "double3" 0 -0.18770818314129889 0.26943574093508371 ;
	setAttr ".sp" -type "double3" 0 -0.18770818314129889 0.26943574093508371 ;
createNode mesh -n "pCubeShape2" -p "pCube2";
	setAttr -k off ".v";
	setAttr ".vir" yes;
	setAttr ".vif" yes;
	setAttr ".uvst[0].uvsn" -type "string" "map1";
	setAttr -s 48 ".uvst[0].uvsp[0:47]" -type "float2" 0.41249627 0.78749633
		 0.58750379 0.96250379 0.33750379 0.23707162 0.16249627 0.23707162 0.16249627 0.012928389
		 0.33750382 0.012928382 0.83750373 0.012928396 0.83750379 0.23707162 0.66249627 0.23707162
		 0.66249621 0.012928385 0.41249624 0.28749624 0.41249627 0.51292837 0.41249621 0.96250379
		 0.375 0.96250379 0.375 0.78749627 0.375 0.012928382 0.375 0.23707162 0.625 0.96250379
		 0.58750367 0.78749627 0.625 0.78749627 0.58750379 0.012928382 0.375 0.28749624 0.375
		 0.46250373 0.41249621 0.25 0.58750379 0.23707163 0.58750379 0.25 0.58750379 0.28749627
		 0.625 0.28749624 0.375 0.51292837 0.41249621 0.5 0.58750379 0.46250373 0.58750379
		 0.5 0.58750379 0.51292837 0.625 0.51292837 0.625 0.73707163 0.41249621 0.74999994
		 0.58750379 0.73707169 0.41249621 3.7252903e-009 0.41249627 0.012928389 0.58750373
		 0 0.625 0.012928382 0.41249621 0.23707162 0.625 0.23707162 0.41249624 0.46250373
		 0.625 0.46250373 0.375 0.73707163 0.41249621 0.73707157 0.58750373 0.75;
	setAttr ".cuvs" -type "string" "map1";
	setAttr ".dcc" -type "string" "Ambient+Diffuse";
	setAttr ".covm[0]"  0 1 1;
	setAttr ".cdvm[0]"  0 1 1;
	setAttr -s 24 ".vt[0:23]"  -0.0683873 -0.42797235 0.31730887 -0.047873158 -0.44848651 0.31730887
		 -0.047873158 -0.42797235 0.33782303 0.047873158 -0.44848651 0.31730887 0.0683873 -0.42797235 0.31730887
		 0.047873158 -0.42797235 0.33782303 -0.047873158 -0.051798299 0.31730887 -0.0683873 -0.07231243 0.31730887
		 -0.047873158 -0.07231243 0.33782303 0.0683873 -0.07231243 0.31730887 0.047873158 -0.051798299 0.31730887
		 0.047873158 -0.07231243 0.33782303 -0.047873158 -0.072312422 0.20104842 -0.0683873 -0.072312422 0.22156256
		 -0.047873158 -0.051798284 0.22156256 0.0683873 -0.072312422 0.22156256 0.047873158 -0.072312422 0.20104842
		 0.047873158 -0.051798284 0.22156256 -0.047873158 -0.44848651 0.22156256 -0.0683873 -0.42797232 0.22156256
		 -0.047873158 -0.42797232 0.20104842 0.0683873 -0.42797232 0.22156256 0.047873158 -0.44848651 0.22156256
		 0.047873158 -0.42797232 0.20104842;
	setAttr -s 48 ".ed[0:47]"  18 22 0 22 3 0 3 1 0 1 18 0 5 11 0 11 8 0
		 8 2 0 2 5 0 7 13 0 13 19 0 19 0 0 0 7 0 21 15 0 15 9 0 9 4 0 4 21 0 10 17 0 17 14 0
		 14 6 0 6 10 0 16 23 0 23 20 0 20 12 0 12 16 0 1 0 0 19 18 0 2 1 0 3 5 0 0 2 0 8 7 0
		 4 3 0 22 21 0 5 4 0 9 11 0 7 6 0 14 13 0 6 8 0 11 10 0 10 9 0 15 17 0 13 12 0 20 19 0
		 12 14 0 17 16 0 16 15 0 21 23 0 18 20 0 23 22 0;
	setAttr -s 26 -ch 96 ".fc[0:25]" -type "polyFaces" 
		f 4 0 1 2 3
		mu 0 4 0 18 1 12
		f 4 4 5 6 7
		mu 0 4 20 24 41 38
		f 4 8 9 10 11
		mu 0 4 2 3 4 5
		f 4 12 13 14 15
		mu 0 4 6 7 8 9
		f 4 16 17 18 19
		mu 0 4 26 30 43 10
		f 4 20 21 22 23
		mu 0 4 32 36 46 11
		f 4 24 -11 25 -4
		mu 0 4 12 13 14 0
		f 4 26 -3 27 -8
		mu 0 4 38 37 39 20
		f 4 28 -7 29 -12
		mu 0 4 15 38 41 16
		f 4 30 -2 31 -16
		mu 0 4 17 1 18 19
		f 4 32 -15 33 -5
		mu 0 4 20 40 42 24
		f 4 34 -19 35 -9
		mu 0 4 21 10 43 22
		f 4 36 -6 37 -20
		mu 0 4 23 41 24 25
		f 4 38 -14 39 -17
		mu 0 4 26 27 44 30
		f 4 40 -23 41 -10
		mu 0 4 28 11 46 45
		f 4 42 -18 43 -24
		mu 0 4 29 43 30 31
		f 4 44 -13 45 -21
		mu 0 4 32 33 34 36
		f 4 46 -22 47 -1
		mu 0 4 35 46 36 47
		f 3 -25 -27 -29
		mu 0 3 15 37 38
		f 3 -31 -33 -28
		mu 0 3 39 40 20
		f 3 -35 -30 -37
		mu 0 3 23 16 41
		f 3 -39 -38 -34
		mu 0 3 42 25 24
		f 3 -41 -36 -43
		mu 0 3 29 22 43
		f 3 -45 -44 -40
		mu 0 3 44 31 30
		f 3 -26 -42 -47
		mu 0 3 35 45 46
		f 3 -32 -48 -46
		mu 0 3 34 47 36;
	setAttr ".cd" -type "dataPolyComponent" Index_Data Edge 0 ;
	setAttr ".cvd" -type "dataPolyComponent" Index_Data Vertex 0 ;
	setAttr ".hfd" -type "dataPolyComponent" Index_Data Face 0 ;
createNode transform -n "pCube3" -p "Plug";
	setAttr ".rp" -type "double3" 0 -0.18770818314129889 -0.269 ;
	setAttr ".sp" -type "double3" 0 -0.18770818314129889 -0.269 ;
createNode mesh -n "pCubeShape3" -p "pCube3";
	setAttr -k off ".v";
	setAttr ".vir" yes;
	setAttr ".vif" yes;
	setAttr ".uvst[0].uvsn" -type "string" "map1";
	setAttr -s 48 ".uvst[0].uvsp[0:47]" -type "float2" 0.41249621 0.78749621
		 0.58750379 0.96250379 0.33750373 0.23707162 0.16249621 0.23707162 0.16249621 0.012928385
		 0.3375037 0.012928396 0.83750385 0.012928382 0.83750379 0.23707162 0.66249621 0.23707162
		 0.66249627 0.012928389 0.41249627 0.28749627 0.41249627 0.51292837 0.41249627 0.96250373
		 0.375 0.96250373 0.375 0.78749621 0.375 0.012928382 0.375 0.23707162 0.625 0.96250373
		 0.58750379 0.78749621 0.625 0.78749621 0.58750379 0.012928382 0.375 0.28749627 0.375
		 0.46250379 0.41249621 0.25 0.58750379 0.23707163 0.58750379 0.25 0.58750373 0.28749627
		 0.625 0.28749627 0.375 0.51292837 0.41249621 0.5 0.58750379 0.46250379 0.58750379
		 0.5 0.58750379 0.51292837 0.625 0.51292837 0.625 0.73707163 0.41249621 0.74999994
		 0.58750379 0.73707169 0.41249621 3.7252903e-009 0.41249627 0.012928389 0.58750373
		 0 0.625 0.012928382 0.41249621 0.23707162 0.625 0.23707162 0.41249621 0.46250379
		 0.625 0.46250379 0.375 0.73707163 0.41249621 0.73707157 0.58750373 0.75;
	setAttr ".cuvs" -type "string" "map1";
	setAttr ".dcc" -type "string" "Ambient+Diffuse";
	setAttr ".covm[0]"  0 1 1;
	setAttr ".cdvm[0]"  0 1 1;
	setAttr -s 24 ".vt[0:23]"  -0.0683873 -0.42797232 -0.22112684 -0.047873158 -0.44848651 -0.22112684
		 -0.047873158 -0.42797232 -0.20061271 0.047873158 -0.44848651 -0.22112684 0.0683873 -0.42797232 -0.22112684
		 0.047873158 -0.42797232 -0.20061271 -0.047873158 -0.051798284 -0.22112684 -0.0683873 -0.072312422 -0.22112684
		 -0.047873158 -0.072312422 -0.20061271 0.0683873 -0.072312422 -0.22112684 0.047873158 -0.051798284 -0.22112684
		 0.047873158 -0.072312422 -0.20061271 -0.047873158 -0.072312422 -0.33738732 -0.0683873 -0.072312422 -0.31687319
		 -0.047873158 -0.051798284 -0.31687319 0.0683873 -0.072312422 -0.31687319 0.047873158 -0.072312422 -0.33738732
		 0.047873158 -0.051798284 -0.31687319 -0.047873158 -0.44848651 -0.31687319 -0.0683873 -0.42797232 -0.31687319
		 -0.047873158 -0.42797232 -0.33738732 0.0683873 -0.42797232 -0.31687319 0.047873158 -0.44848651 -0.31687319
		 0.047873158 -0.42797232 -0.33738732;
	setAttr -s 48 ".ed[0:47]"  18 22 0 22 3 0 3 1 0 1 18 0 5 11 0 11 8 0
		 8 2 0 2 5 0 7 13 0 13 19 0 19 0 0 0 7 0 21 15 0 15 9 0 9 4 0 4 21 0 10 17 0 17 14 0
		 14 6 0 6 10 0 16 23 0 23 20 0 20 12 0 12 16 0 1 0 0 19 18 0 2 1 0 3 5 0 0 2 0 8 7 0
		 4 3 0 22 21 0 5 4 0 9 11 0 7 6 0 14 13 0 6 8 0 11 10 0 10 9 0 15 17 0 13 12 0 20 19 0
		 12 14 0 17 16 0 16 15 0 21 23 0 18 20 0 23 22 0;
	setAttr -s 26 -ch 96 ".fc[0:25]" -type "polyFaces" 
		f 4 0 1 2 3
		mu 0 4 0 18 1 12
		f 4 4 5 6 7
		mu 0 4 20 24 41 38
		f 4 8 9 10 11
		mu 0 4 2 3 4 5
		f 4 12 13 14 15
		mu 0 4 6 7 8 9
		f 4 16 17 18 19
		mu 0 4 26 30 43 10
		f 4 20 21 22 23
		mu 0 4 32 36 46 11
		f 4 24 -11 25 -4
		mu 0 4 12 13 14 0
		f 4 26 -3 27 -8
		mu 0 4 38 37 39 20
		f 4 28 -7 29 -12
		mu 0 4 15 38 41 16
		f 4 30 -2 31 -16
		mu 0 4 17 1 18 19
		f 4 32 -15 33 -5
		mu 0 4 20 40 42 24
		f 4 34 -19 35 -9
		mu 0 4 21 10 43 22
		f 4 36 -6 37 -20
		mu 0 4 23 41 24 25
		f 4 38 -14 39 -17
		mu 0 4 26 27 44 30
		f 4 40 -23 41 -10
		mu 0 4 28 11 46 45
		f 4 42 -18 43 -24
		mu 0 4 29 43 30 31
		f 4 44 -13 45 -21
		mu 0 4 32 33 34 36
		f 4 46 -22 47 -1
		mu 0 4 35 46 36 47
		f 3 -25 -27 -29
		mu 0 3 15 37 38
		f 3 -31 -33 -28
		mu 0 3 39 40 20
		f 3 -35 -30 -37
		mu 0 3 23 16 41
		f 3 -39 -38 -34
		mu 0 3 42 25 24
		f 3 -41 -36 -43
		mu 0 3 29 22 43
		f 3 -45 -44 -40
		mu 0 3 44 31 30
		f 3 -26 -42 -47
		mu 0 3 35 45 46
		f 3 -32 -48 -46
		mu 0 3 34 47 36;
	setAttr ".cd" -type "dataPolyComponent" Index_Data Edge 0 ;
	setAttr ".cvd" -type "dataPolyComponent" Index_Data Vertex 0 ;
	setAttr ".hfd" -type "dataPolyComponent" Index_Data Face 0 ;
createNode transform -n "pCube4" -p "Plug";
	setAttr ".t" -type "double3" 0 0.37559724935174721 0 ;
	setAttr ".s" -type "double3" 0.89894555016478062 0.35231825164593272 0.46956590161456779 ;
createNode mesh -n "pCubeShape4" -p "pCube4";
	setAttr -k off ".v";
	setAttr -s 2 ".iog[0].og";
	setAttr ".iog[0].og[0].gcl" -type "componentList" 6 "f[0]" "f[2:3]" "f[6:24]" "f[26:30]" "f[32:33]" "f[35:39]";
	setAttr ".iog[0].og[1].gcl" -type "componentList" 6 "f[1]" "f[4:5]" "f[25]" "f[31]" "f[34]" "f[40:43]";
	setAttr ".vir" yes;
	setAttr ".vif" yes;
	setAttr ".uvst[0].uvsn" -type "string" "map1";
	setAttr -s 62 ".uvst[0].uvsp[0:61]" -type "float2" 0.375 0 0.625 0 0.375
		 0.25 0.625 0.25 0.375 0.5 0.625 0.5 0.375 0.75 0.625 0.75 0.375 1 0.625 1 0.875 0
		 0.875 0.25 0.125 0 0.125 0.25 0.375 0.25 0.625 0.25 0.625 0.5 0.375 0.5 0.625 0 0.875
		 0 0.875 0.25 0.125 0 0.375 0 0.125 0.25 0.375 0.25 0.625 0.25 0.625 0.5 0.375 0.5
		 0.625 0 0.875 0 0.875 0.25 0.125 0 0.375 0 0.125 0.25 0.625 0.125 0.375 0.125 0.375
		 0.125 0.375 0.125 0.125 0.125 0.125 0.125 0.125 0.125 0.375 0.625 0.625 0.625 0.875
		 0.125 0.875 0.125 0.875 0.125 0.625 0.125 0.625 0.125 0.75 0.125 0.75 0 0.75 0 0.625
		 0.875 0.75 0 0.25 0 0.375 0.875 0.25 0 0.25 0 0.25 0.125 0.25 0.25 0.375 0.375 0.625
		 0.375 0.75 0.25;
	setAttr ".cuvs" -type "string" "map1";
	setAttr ".dcc" -type "string" "Ambient+Diffuse";
	setAttr ".covm[0]"  0 1 1;
	setAttr ".cdvm[0]"  0 1 1;
	setAttr -s 22 ".pt";
	setAttr ".pt[20]" -type "float3" 0.019529311 0 0 ;
	setAttr ".pt[21]" -type "float3" 0.019529311 0 0 ;
	setAttr ".pt[22]" -type "float3" -0.019529311 0 0 ;
	setAttr ".pt[23]" -type "float3" -0.019529311 0 0 ;
	setAttr ".pt[24]" -type "float3" -0.014827165 0 0 ;
	setAttr ".pt[25]" -type "float3" 0.014827165 0 0 ;
	setAttr ".pt[26]" -type "float3" 0.015077511 0 0 ;
	setAttr ".pt[29]" -type "float3" 0.015077511 0 0 ;
	setAttr ".pt[30]" -type "float3" 0.014827165 0 0 ;
	setAttr ".pt[31]" -type "float3" -0.014827165 0 0 ;
	setAttr ".pt[32]" -type "float3" -0.015077511 0 0 ;
	setAttr ".pt[35]" -type "float3" -0.015073838 0 0 ;
	setAttr ".pt[37]" -type "float3" 0.021580227 0.033103723 0 ;
	setAttr ".pt[42]" -type "float3" -0.021580227 0.033103723 0 ;
	setAttr -s 46 ".vt[0:45]"  -0.23668179 -0.27418882 0.43770441 0.23668176 -0.274189 0.43770427
		 -0.12394954 0.3969439 0.5 0.12394954 0.3969439 0.5 -0.12394954 0.3969439 -0.5 0.12394954 0.3969439 -0.5
		 -0.23668179 -0.27418882 -0.41073203 0.23668176 -0.27418882 -0.43770441 -0.12394954 0.44807133 0.32713345
		 0.12394954 0.44807133 0.32713345 0.12394954 0.44807133 -0.32713345 -0.12394954 0.44807133 -0.32713345
		 0.22075483 -0.11616238 -0.33884159 0.22065938 -0.11322539 0.32214415 -0.21954614 -0.10099685 -0.32713345
		 -0.21954614 -0.10099685 0.32713345 -0.11772749 0.41196683 0.28896788 0.11772749 0.41196683 0.28896788
		 0.11772749 0.41196683 -0.28896788 -0.11772749 0.41196683 -0.28896788 0.18108575 -0.080040522 -0.28896788
		 0.18108575 -0.080040522 0.28896788 -0.18108575 -0.080040522 -0.28896788 -0.18108575 -0.080040522 0.28896788
		 0.21261898 0.11290547 0.46918872 -0.21261901 0.11290556 0.46918881 -0.20369677 0.22506526 0.32713345
		 -0.17918426 0.21749118 0.28896788 -0.17918426 0.21749118 -0.28896788 -0.20369677 0.22506526 -0.32713345
		 -0.21261901 0.11290556 -0.46918881 0.21261898 0.11290556 -0.46918881 0.20432612 0.21748249 -0.33298752
		 0.17918427 0.21749118 -0.28896788 0.17918427 0.21749118 0.28896788 0.20427641 0.21895099 0.32463878
		 0.17918427 0.21749118 0 0.19010791 -0.15515885 0 0.23170331 -0.18981221 -0.0083487183
		 0.24847387 -0.34930724 -7.4505806e-008 -0.2484739 -0.34930715 0.013486192 -0.2304845 -0.17611519 0
		 -0.19010791 -0.15515885 0 -0.17918426 0.21749118 0 -0.11772749 0.41196683 0 0.11772749 0.41196683 0;
	setAttr -s 88 ".ed[0:87]"  0 1 1 2 3 0 4 5 0 6 7 1 0 25 0 1 24 0 4 30 0
		 5 31 0 6 40 0 7 39 0 2 8 1 3 9 1 8 9 1 5 10 1 4 11 1 11 10 1 7 12 1 1 13 1 12 38 1
		 10 32 1 13 35 1 6 14 1 0 15 1 14 41 1 15 26 1 11 29 1 8 16 1 9 17 1 16 17 0 10 18 1
		 17 45 1 11 19 1 19 18 0 16 44 1 12 20 1 13 21 1 20 37 0 18 33 0 21 34 0 14 22 1 15 23 1
		 22 42 0 23 27 0 19 28 0 24 3 0 25 2 0 24 25 1 26 8 1 25 26 1 27 16 0 26 27 1 28 22 0
		 27 43 1 29 14 1 28 29 1 30 6 0 29 30 1 31 7 0 30 31 1 32 12 1 31 32 1 33 20 0 32 33 1
		 34 17 0 33 36 1 35 9 1 34 35 1 35 24 1 36 34 1 37 21 0 36 37 1 38 13 1 37 38 1 39 1 0
		 38 39 1 40 0 0 39 40 1 41 15 1 40 41 1 42 23 0 41 42 1 43 28 1 42 43 1 44 19 1 43 44 1
		 45 18 1 44 45 1 45 36 1;
	setAttr -s 44 -ch 176 ".fc[0:43]" -type "polyFaces" 
		f 4 0 5 46 -5
		mu 0 4 0 1 34 35
		f 4 86 85 -33 -84
		mu 0 4 59 60 26 27
		f 4 58 57 -4 -56
		mu 0 4 41 42 7 6
		f 4 3 9 76 -9
		mu 0 4 6 7 51 54
		f 4 -37 -62 64 70
		mu 0 4 49 29 45 48
		f 4 41 82 81 51
		mu 0 4 31 56 57 38
		f 4 1 11 -13 -11
		mu 0 4 2 3 15 14
		f 4 -3 14 15 -14
		mu 0 4 5 4 17 16
		f 4 -10 16 18 74
		mu 0 4 52 10 19 50
		f 4 -58 60 59 -17
		mu 0 4 10 43 44 19
		f 4 67 -6 17 20
		mu 0 4 47 34 1 18
		f 4 8 78 -24 -22
		mu 0 4 12 53 55 21
		f 4 4 48 -25 -23
		mu 0 4 0 35 36 22
		f 4 55 21 -54 56
		mu 0 4 40 12 21 39
		f 4 12 27 -29 -27
		mu 0 4 14 15 25 24
		f 4 -16 31 32 -30
		mu 0 4 16 17 27 26
		f 4 -19 34 36 72
		mu 0 4 50 19 29 49
		f 4 -60 62 61 -35
		mu 0 4 19 44 45 29
		f 4 -21 35 38 66
		mu 0 4 47 18 28 46
		f 4 23 80 -42 -40
		mu 0 4 21 55 56 31
		f 4 24 50 -43 -41
		mu 0 4 22 36 37 32
		f 4 53 39 -52 54
		mu 0 4 39 21 31 38
		f 4 -47 44 -2 -46
		mu 0 4 35 34 3 2
		f 4 -49 45 10 -48
		mu 0 4 36 35 2 14
		f 4 -51 47 26 -50
		mu 0 4 37 36 14 24
		f 4 -82 84 83 43
		mu 0 4 38 57 58 33
		f 4 25 -55 -44 -32
		mu 0 4 23 39 38 33
		f 4 6 -57 -26 -15
		mu 0 4 13 40 39 23
		f 4 2 7 -59 -7
		mu 0 4 4 5 42 41
		f 4 -61 -8 13 19
		mu 0 4 44 43 11 20
		f 4 -63 -20 29 37
		mu 0 4 45 44 20 30
		f 4 87 -65 -38 -86
		mu 0 4 61 48 45 30
		f 4 -66 -67 63 -28
		mu 0 4 15 47 46 25
		f 4 -45 -68 65 -12
		mu 0 4 3 34 47 15
		f 4 -70 -71 68 -39
		mu 0 4 28 49 48 46
		f 4 -72 -73 69 -36
		mu 0 4 18 50 49 28
		f 4 -74 -75 71 -18
		mu 0 4 1 52 50 18
		f 4 -77 73 -1 -76
		mu 0 4 54 51 9 8
		f 4 -79 75 22 -78
		mu 0 4 55 53 0 22
		f 4 -81 77 40 -80
		mu 0 4 56 55 22 32
		f 4 -83 79 42 52
		mu 0 4 57 56 32 37
		f 4 -85 -53 49 33
		mu 0 4 58 57 37 24
		f 4 28 30 -87 -34
		mu 0 4 24 25 60 59
		f 4 -69 -88 -31 -64
		mu 0 4 46 48 61 25;
	setAttr ".cd" -type "dataPolyComponent" Index_Data Edge 0 ;
	setAttr ".cvd" -type "dataPolyComponent" Index_Data Vertex 0 ;
	setAttr ".hfd" -type "dataPolyComponent" Index_Data Face 0 ;
createNode lightLinker -s -n "lightLinker1";
	setAttr -s 3 ".lnk";
	setAttr -s 3 ".slnk";
createNode displayLayerManager -n "layerManager";
createNode displayLayer -n "defaultLayer";
createNode renderLayerManager -n "renderLayerManager";
createNode renderLayer -n "defaultRenderLayer";
	setAttr ".g" yes;
createNode script -n "uiConfigurationScriptNode";
	setAttr ".b" -type "string" (
		"// Maya Mel UI Configuration File.\n//\n//  This script is machine generated.  Edit at your own risk.\n//\n//\n\nglobal string $gMainPane;\nif (`paneLayout -exists $gMainPane`) {\n\n\tglobal int $gUseScenePanelConfig;\n\tint    $useSceneConfig = $gUseScenePanelConfig;\n\tint    $menusOkayInPanels = `optionVar -q allowMenusInPanels`;\tint    $nVisPanes = `paneLayout -q -nvp $gMainPane`;\n\tint    $nPanes = 0;\n\tstring $editorName;\n\tstring $panelName;\n\tstring $itemFilterName;\n\tstring $panelConfig;\n\n\t//\n\t//  get current state of the UI\n\t//\n\tsceneUIReplacement -update $gMainPane;\n\n\t$panelName = `sceneUIReplacement -getNextPanel \"modelPanel\" (localizedPanelLabel(\"Top View\")) `;\n\tif (\"\" == $panelName) {\n\t\tif ($useSceneConfig) {\n\t\t\t$panelName = `modelPanel -unParent -l (localizedPanelLabel(\"Top View\")) -mbv $menusOkayInPanels `;\n\t\t\t$editorName = $panelName;\n            modelEditor -e \n                -camera \"top\" \n                -useInteractiveMode 0\n                -displayLights \"default\" \n                -displayAppearance \"wireframe\" \n"
		+ "                -activeOnly 0\n                -ignorePanZoom 0\n                -wireframeOnShaded 0\n                -headsUpDisplay 1\n                -selectionHiliteDisplay 1\n                -useDefaultMaterial 0\n                -bufferMode \"double\" \n                -twoSidedLighting 1\n                -backfaceCulling 0\n                -xray 0\n                -jointXray 0\n                -activeComponentsXray 0\n                -displayTextures 0\n                -smoothWireframe 0\n                -lineWidth 1\n                -textureAnisotropic 0\n                -textureHilight 1\n                -textureSampling 2\n                -textureDisplay \"modulate\" \n                -textureMaxSize 16384\n                -fogging 0\n                -fogSource \"fragment\" \n                -fogMode \"linear\" \n                -fogStart 0\n                -fogEnd 100\n                -fogDensity 0.1\n                -fogColor 0.5 0.5 0.5 1 \n                -maxConstantTransparency 1\n                -rendererName \"base_OpenGL_Renderer\" \n"
		+ "                -objectFilterShowInHUD 1\n                -isFiltered 0\n                -colorResolution 256 256 \n                -bumpResolution 512 512 \n                -textureCompression 0\n                -transparencyAlgorithm \"frontAndBackCull\" \n                -transpInShadows 0\n                -cullingOverride \"none\" \n                -lowQualityLighting 0\n                -maximumNumHardwareLights 1\n                -occlusionCulling 0\n                -shadingModel 0\n                -useBaseRenderer 0\n                -useReducedRenderer 0\n                -smallObjectCulling 0\n                -smallObjectThreshold -1 \n                -interactiveDisableShadows 0\n                -interactiveBackFaceCull 0\n                -sortTransparent 1\n                -nurbsCurves 1\n                -nurbsSurfaces 1\n                -polymeshes 1\n                -subdivSurfaces 1\n                -planes 1\n                -lights 1\n                -cameras 1\n                -controlVertices 1\n                -hulls 1\n                -grid 1\n"
		+ "                -imagePlane 1\n                -joints 1\n                -ikHandles 1\n                -deformers 1\n                -dynamics 1\n                -fluids 1\n                -hairSystems 1\n                -follicles 1\n                -nCloths 1\n                -nParticles 1\n                -nRigids 1\n                -dynamicConstraints 1\n                -locators 1\n                -manipulators 1\n                -pluginShapes 1\n                -dimensions 1\n                -handles 1\n                -pivots 1\n                -textures 1\n                -strokes 1\n                -motionTrails 1\n                -clipGhosts 1\n                -greasePencils 1\n                -shadows 0\n                $editorName;\n            modelEditor -e -viewSelected 0 $editorName;\n            modelEditor -e \n                -pluginObjects \"gpuCacheDisplayFilter\" 1 \n                $editorName;\n\t\t}\n\t} else {\n\t\t$label = `panel -q -label $panelName`;\n\t\tmodelPanel -edit -l (localizedPanelLabel(\"Top View\")) -mbv $menusOkayInPanels  $panelName;\n"
		+ "\t\t$editorName = $panelName;\n        modelEditor -e \n            -camera \"top\" \n            -useInteractiveMode 0\n            -displayLights \"default\" \n            -displayAppearance \"wireframe\" \n            -activeOnly 0\n            -ignorePanZoom 0\n            -wireframeOnShaded 0\n            -headsUpDisplay 1\n            -selectionHiliteDisplay 1\n            -useDefaultMaterial 0\n            -bufferMode \"double\" \n            -twoSidedLighting 1\n            -backfaceCulling 0\n            -xray 0\n            -jointXray 0\n            -activeComponentsXray 0\n            -displayTextures 0\n            -smoothWireframe 0\n            -lineWidth 1\n            -textureAnisotropic 0\n            -textureHilight 1\n            -textureSampling 2\n            -textureDisplay \"modulate\" \n            -textureMaxSize 16384\n            -fogging 0\n            -fogSource \"fragment\" \n            -fogMode \"linear\" \n            -fogStart 0\n            -fogEnd 100\n            -fogDensity 0.1\n            -fogColor 0.5 0.5 0.5 1 \n            -maxConstantTransparency 1\n"
		+ "            -rendererName \"base_OpenGL_Renderer\" \n            -objectFilterShowInHUD 1\n            -isFiltered 0\n            -colorResolution 256 256 \n            -bumpResolution 512 512 \n            -textureCompression 0\n            -transparencyAlgorithm \"frontAndBackCull\" \n            -transpInShadows 0\n            -cullingOverride \"none\" \n            -lowQualityLighting 0\n            -maximumNumHardwareLights 1\n            -occlusionCulling 0\n            -shadingModel 0\n            -useBaseRenderer 0\n            -useReducedRenderer 0\n            -smallObjectCulling 0\n            -smallObjectThreshold -1 \n            -interactiveDisableShadows 0\n            -interactiveBackFaceCull 0\n            -sortTransparent 1\n            -nurbsCurves 1\n            -nurbsSurfaces 1\n            -polymeshes 1\n            -subdivSurfaces 1\n            -planes 1\n            -lights 1\n            -cameras 1\n            -controlVertices 1\n            -hulls 1\n            -grid 1\n            -imagePlane 1\n            -joints 1\n"
		+ "            -ikHandles 1\n            -deformers 1\n            -dynamics 1\n            -fluids 1\n            -hairSystems 1\n            -follicles 1\n            -nCloths 1\n            -nParticles 1\n            -nRigids 1\n            -dynamicConstraints 1\n            -locators 1\n            -manipulators 1\n            -pluginShapes 1\n            -dimensions 1\n            -handles 1\n            -pivots 1\n            -textures 1\n            -strokes 1\n            -motionTrails 1\n            -clipGhosts 1\n            -greasePencils 1\n            -shadows 0\n            $editorName;\n        modelEditor -e -viewSelected 0 $editorName;\n        modelEditor -e \n            -pluginObjects \"gpuCacheDisplayFilter\" 1 \n            $editorName;\n\t\tif (!$useSceneConfig) {\n\t\t\tpanel -e -l $label $panelName;\n\t\t}\n\t}\n\n\n\t$panelName = `sceneUIReplacement -getNextPanel \"modelPanel\" (localizedPanelLabel(\"Side View\")) `;\n\tif (\"\" == $panelName) {\n\t\tif ($useSceneConfig) {\n\t\t\t$panelName = `modelPanel -unParent -l (localizedPanelLabel(\"Side View\")) -mbv $menusOkayInPanels `;\n"
		+ "\t\t\t$editorName = $panelName;\n            modelEditor -e \n                -camera \"side\" \n                -useInteractiveMode 0\n                -displayLights \"default\" \n                -displayAppearance \"wireframe\" \n                -activeOnly 0\n                -ignorePanZoom 0\n                -wireframeOnShaded 0\n                -headsUpDisplay 1\n                -selectionHiliteDisplay 1\n                -useDefaultMaterial 0\n                -bufferMode \"double\" \n                -twoSidedLighting 1\n                -backfaceCulling 0\n                -xray 0\n                -jointXray 0\n                -activeComponentsXray 0\n                -displayTextures 0\n                -smoothWireframe 0\n                -lineWidth 1\n                -textureAnisotropic 0\n                -textureHilight 1\n                -textureSampling 2\n                -textureDisplay \"modulate\" \n                -textureMaxSize 16384\n                -fogging 0\n                -fogSource \"fragment\" \n                -fogMode \"linear\" \n                -fogStart 0\n"
		+ "                -fogEnd 100\n                -fogDensity 0.1\n                -fogColor 0.5 0.5 0.5 1 \n                -maxConstantTransparency 1\n                -rendererName \"base_OpenGL_Renderer\" \n                -objectFilterShowInHUD 1\n                -isFiltered 0\n                -colorResolution 256 256 \n                -bumpResolution 512 512 \n                -textureCompression 0\n                -transparencyAlgorithm \"frontAndBackCull\" \n                -transpInShadows 0\n                -cullingOverride \"none\" \n                -lowQualityLighting 0\n                -maximumNumHardwareLights 1\n                -occlusionCulling 0\n                -shadingModel 0\n                -useBaseRenderer 0\n                -useReducedRenderer 0\n                -smallObjectCulling 0\n                -smallObjectThreshold -1 \n                -interactiveDisableShadows 0\n                -interactiveBackFaceCull 0\n                -sortTransparent 1\n                -nurbsCurves 1\n                -nurbsSurfaces 1\n                -polymeshes 1\n"
		+ "                -subdivSurfaces 1\n                -planes 1\n                -lights 1\n                -cameras 1\n                -controlVertices 1\n                -hulls 1\n                -grid 1\n                -imagePlane 1\n                -joints 1\n                -ikHandles 1\n                -deformers 1\n                -dynamics 1\n                -fluids 1\n                -hairSystems 1\n                -follicles 1\n                -nCloths 1\n                -nParticles 1\n                -nRigids 1\n                -dynamicConstraints 1\n                -locators 1\n                -manipulators 1\n                -pluginShapes 1\n                -dimensions 1\n                -handles 1\n                -pivots 1\n                -textures 1\n                -strokes 1\n                -motionTrails 1\n                -clipGhosts 1\n                -greasePencils 1\n                -shadows 0\n                $editorName;\n            modelEditor -e -viewSelected 0 $editorName;\n            modelEditor -e \n                -pluginObjects \"gpuCacheDisplayFilter\" 1 \n"
		+ "                $editorName;\n\t\t}\n\t} else {\n\t\t$label = `panel -q -label $panelName`;\n\t\tmodelPanel -edit -l (localizedPanelLabel(\"Side View\")) -mbv $menusOkayInPanels  $panelName;\n\t\t$editorName = $panelName;\n        modelEditor -e \n            -camera \"side\" \n            -useInteractiveMode 0\n            -displayLights \"default\" \n            -displayAppearance \"wireframe\" \n            -activeOnly 0\n            -ignorePanZoom 0\n            -wireframeOnShaded 0\n            -headsUpDisplay 1\n            -selectionHiliteDisplay 1\n            -useDefaultMaterial 0\n            -bufferMode \"double\" \n            -twoSidedLighting 1\n            -backfaceCulling 0\n            -xray 0\n            -jointXray 0\n            -activeComponentsXray 0\n            -displayTextures 0\n            -smoothWireframe 0\n            -lineWidth 1\n            -textureAnisotropic 0\n            -textureHilight 1\n            -textureSampling 2\n            -textureDisplay \"modulate\" \n            -textureMaxSize 16384\n            -fogging 0\n            -fogSource \"fragment\" \n"
		+ "            -fogMode \"linear\" \n            -fogStart 0\n            -fogEnd 100\n            -fogDensity 0.1\n            -fogColor 0.5 0.5 0.5 1 \n            -maxConstantTransparency 1\n            -rendererName \"base_OpenGL_Renderer\" \n            -objectFilterShowInHUD 1\n            -isFiltered 0\n            -colorResolution 256 256 \n            -bumpResolution 512 512 \n            -textureCompression 0\n            -transparencyAlgorithm \"frontAndBackCull\" \n            -transpInShadows 0\n            -cullingOverride \"none\" \n            -lowQualityLighting 0\n            -maximumNumHardwareLights 1\n            -occlusionCulling 0\n            -shadingModel 0\n            -useBaseRenderer 0\n            -useReducedRenderer 0\n            -smallObjectCulling 0\n            -smallObjectThreshold -1 \n            -interactiveDisableShadows 0\n            -interactiveBackFaceCull 0\n            -sortTransparent 1\n            -nurbsCurves 1\n            -nurbsSurfaces 1\n            -polymeshes 1\n            -subdivSurfaces 1\n            -planes 1\n"
		+ "            -lights 1\n            -cameras 1\n            -controlVertices 1\n            -hulls 1\n            -grid 1\n            -imagePlane 1\n            -joints 1\n            -ikHandles 1\n            -deformers 1\n            -dynamics 1\n            -fluids 1\n            -hairSystems 1\n            -follicles 1\n            -nCloths 1\n            -nParticles 1\n            -nRigids 1\n            -dynamicConstraints 1\n            -locators 1\n            -manipulators 1\n            -pluginShapes 1\n            -dimensions 1\n            -handles 1\n            -pivots 1\n            -textures 1\n            -strokes 1\n            -motionTrails 1\n            -clipGhosts 1\n            -greasePencils 1\n            -shadows 0\n            $editorName;\n        modelEditor -e -viewSelected 0 $editorName;\n        modelEditor -e \n            -pluginObjects \"gpuCacheDisplayFilter\" 1 \n            $editorName;\n\t\tif (!$useSceneConfig) {\n\t\t\tpanel -e -l $label $panelName;\n\t\t}\n\t}\n\n\n\t$panelName = `sceneUIReplacement -getNextPanel \"modelPanel\" (localizedPanelLabel(\"Front View\")) `;\n"
		+ "\tif (\"\" == $panelName) {\n\t\tif ($useSceneConfig) {\n\t\t\t$panelName = `modelPanel -unParent -l (localizedPanelLabel(\"Front View\")) -mbv $menusOkayInPanels `;\n\t\t\t$editorName = $panelName;\n            modelEditor -e \n                -camera \"front\" \n                -useInteractiveMode 0\n                -displayLights \"default\" \n                -displayAppearance \"wireframe\" \n                -activeOnly 0\n                -ignorePanZoom 0\n                -wireframeOnShaded 0\n                -headsUpDisplay 1\n                -selectionHiliteDisplay 1\n                -useDefaultMaterial 0\n                -bufferMode \"double\" \n                -twoSidedLighting 1\n                -backfaceCulling 0\n                -xray 0\n                -jointXray 0\n                -activeComponentsXray 0\n                -displayTextures 0\n                -smoothWireframe 0\n                -lineWidth 1\n                -textureAnisotropic 0\n                -textureHilight 1\n                -textureSampling 2\n                -textureDisplay \"modulate\" \n"
		+ "                -textureMaxSize 16384\n                -fogging 0\n                -fogSource \"fragment\" \n                -fogMode \"linear\" \n                -fogStart 0\n                -fogEnd 100\n                -fogDensity 0.1\n                -fogColor 0.5 0.5 0.5 1 \n                -maxConstantTransparency 1\n                -rendererName \"base_OpenGL_Renderer\" \n                -objectFilterShowInHUD 1\n                -isFiltered 0\n                -colorResolution 256 256 \n                -bumpResolution 512 512 \n                -textureCompression 0\n                -transparencyAlgorithm \"frontAndBackCull\" \n                -transpInShadows 0\n                -cullingOverride \"none\" \n                -lowQualityLighting 0\n                -maximumNumHardwareLights 1\n                -occlusionCulling 0\n                -shadingModel 0\n                -useBaseRenderer 0\n                -useReducedRenderer 0\n                -smallObjectCulling 0\n                -smallObjectThreshold -1 \n                -interactiveDisableShadows 0\n"
		+ "                -interactiveBackFaceCull 0\n                -sortTransparent 1\n                -nurbsCurves 1\n                -nurbsSurfaces 1\n                -polymeshes 1\n                -subdivSurfaces 1\n                -planes 1\n                -lights 1\n                -cameras 1\n                -controlVertices 1\n                -hulls 1\n                -grid 1\n                -imagePlane 1\n                -joints 1\n                -ikHandles 1\n                -deformers 1\n                -dynamics 1\n                -fluids 1\n                -hairSystems 1\n                -follicles 1\n                -nCloths 1\n                -nParticles 1\n                -nRigids 1\n                -dynamicConstraints 1\n                -locators 1\n                -manipulators 1\n                -pluginShapes 1\n                -dimensions 1\n                -handles 1\n                -pivots 1\n                -textures 1\n                -strokes 1\n                -motionTrails 1\n                -clipGhosts 1\n                -greasePencils 1\n"
		+ "                -shadows 0\n                $editorName;\n            modelEditor -e -viewSelected 0 $editorName;\n            modelEditor -e \n                -pluginObjects \"gpuCacheDisplayFilter\" 1 \n                $editorName;\n\t\t}\n\t} else {\n\t\t$label = `panel -q -label $panelName`;\n\t\tmodelPanel -edit -l (localizedPanelLabel(\"Front View\")) -mbv $menusOkayInPanels  $panelName;\n\t\t$editorName = $panelName;\n        modelEditor -e \n            -camera \"front\" \n            -useInteractiveMode 0\n            -displayLights \"default\" \n            -displayAppearance \"wireframe\" \n            -activeOnly 0\n            -ignorePanZoom 0\n            -wireframeOnShaded 0\n            -headsUpDisplay 1\n            -selectionHiliteDisplay 1\n            -useDefaultMaterial 0\n            -bufferMode \"double\" \n            -twoSidedLighting 1\n            -backfaceCulling 0\n            -xray 0\n            -jointXray 0\n            -activeComponentsXray 0\n            -displayTextures 0\n            -smoothWireframe 0\n            -lineWidth 1\n"
		+ "            -textureAnisotropic 0\n            -textureHilight 1\n            -textureSampling 2\n            -textureDisplay \"modulate\" \n            -textureMaxSize 16384\n            -fogging 0\n            -fogSource \"fragment\" \n            -fogMode \"linear\" \n            -fogStart 0\n            -fogEnd 100\n            -fogDensity 0.1\n            -fogColor 0.5 0.5 0.5 1 \n            -maxConstantTransparency 1\n            -rendererName \"base_OpenGL_Renderer\" \n            -objectFilterShowInHUD 1\n            -isFiltered 0\n            -colorResolution 256 256 \n            -bumpResolution 512 512 \n            -textureCompression 0\n            -transparencyAlgorithm \"frontAndBackCull\" \n            -transpInShadows 0\n            -cullingOverride \"none\" \n            -lowQualityLighting 0\n            -maximumNumHardwareLights 1\n            -occlusionCulling 0\n            -shadingModel 0\n            -useBaseRenderer 0\n            -useReducedRenderer 0\n            -smallObjectCulling 0\n            -smallObjectThreshold -1 \n"
		+ "            -interactiveDisableShadows 0\n            -interactiveBackFaceCull 0\n            -sortTransparent 1\n            -nurbsCurves 1\n            -nurbsSurfaces 1\n            -polymeshes 1\n            -subdivSurfaces 1\n            -planes 1\n            -lights 1\n            -cameras 1\n            -controlVertices 1\n            -hulls 1\n            -grid 1\n            -imagePlane 1\n            -joints 1\n            -ikHandles 1\n            -deformers 1\n            -dynamics 1\n            -fluids 1\n            -hairSystems 1\n            -follicles 1\n            -nCloths 1\n            -nParticles 1\n            -nRigids 1\n            -dynamicConstraints 1\n            -locators 1\n            -manipulators 1\n            -pluginShapes 1\n            -dimensions 1\n            -handles 1\n            -pivots 1\n            -textures 1\n            -strokes 1\n            -motionTrails 1\n            -clipGhosts 1\n            -greasePencils 1\n            -shadows 0\n            $editorName;\n        modelEditor -e -viewSelected 0 $editorName;\n"
		+ "        modelEditor -e \n            -pluginObjects \"gpuCacheDisplayFilter\" 1 \n            $editorName;\n\t\tif (!$useSceneConfig) {\n\t\t\tpanel -e -l $label $panelName;\n\t\t}\n\t}\n\n\n\t$panelName = `sceneUIReplacement -getNextPanel \"modelPanel\" (localizedPanelLabel(\"Persp View\")) `;\n\tif (\"\" == $panelName) {\n\t\tif ($useSceneConfig) {\n\t\t\t$panelName = `modelPanel -unParent -l (localizedPanelLabel(\"Persp View\")) -mbv $menusOkayInPanels `;\n\t\t\t$editorName = $panelName;\n            modelEditor -e \n                -camera \"persp\" \n                -useInteractiveMode 0\n                -displayLights \"default\" \n                -displayAppearance \"smoothShaded\" \n                -activeOnly 0\n                -ignorePanZoom 0\n                -wireframeOnShaded 0\n                -headsUpDisplay 1\n                -selectionHiliteDisplay 1\n                -useDefaultMaterial 0\n                -bufferMode \"double\" \n                -twoSidedLighting 1\n                -backfaceCulling 0\n                -xray 0\n                -jointXray 0\n                -activeComponentsXray 0\n"
		+ "                -displayTextures 0\n                -smoothWireframe 0\n                -lineWidth 1\n                -textureAnisotropic 0\n                -textureHilight 1\n                -textureSampling 2\n                -textureDisplay \"modulate\" \n                -textureMaxSize 16384\n                -fogging 0\n                -fogSource \"fragment\" \n                -fogMode \"linear\" \n                -fogStart 0\n                -fogEnd 100\n                -fogDensity 0.1\n                -fogColor 0.5 0.5 0.5 1 \n                -maxConstantTransparency 1\n                -rendererName \"base_OpenGL_Renderer\" \n                -objectFilterShowInHUD 1\n                -isFiltered 0\n                -colorResolution 256 256 \n                -bumpResolution 512 512 \n                -textureCompression 0\n                -transparencyAlgorithm \"frontAndBackCull\" \n                -transpInShadows 0\n                -cullingOverride \"none\" \n                -lowQualityLighting 0\n                -maximumNumHardwareLights 1\n                -occlusionCulling 0\n"
		+ "                -shadingModel 0\n                -useBaseRenderer 0\n                -useReducedRenderer 0\n                -smallObjectCulling 0\n                -smallObjectThreshold -1 \n                -interactiveDisableShadows 0\n                -interactiveBackFaceCull 0\n                -sortTransparent 1\n                -nurbsCurves 1\n                -nurbsSurfaces 1\n                -polymeshes 1\n                -subdivSurfaces 1\n                -planes 1\n                -lights 1\n                -cameras 1\n                -controlVertices 1\n                -hulls 1\n                -grid 1\n                -imagePlane 1\n                -joints 1\n                -ikHandles 1\n                -deformers 1\n                -dynamics 1\n                -fluids 1\n                -hairSystems 1\n                -follicles 1\n                -nCloths 1\n                -nParticles 1\n                -nRigids 1\n                -dynamicConstraints 1\n                -locators 1\n                -manipulators 1\n                -pluginShapes 1\n"
		+ "                -dimensions 1\n                -handles 1\n                -pivots 1\n                -textures 1\n                -strokes 1\n                -motionTrails 1\n                -clipGhosts 1\n                -greasePencils 1\n                -shadows 0\n                $editorName;\n            modelEditor -e -viewSelected 0 $editorName;\n            modelEditor -e \n                -pluginObjects \"gpuCacheDisplayFilter\" 1 \n                $editorName;\n\t\t}\n\t} else {\n\t\t$label = `panel -q -label $panelName`;\n\t\tmodelPanel -edit -l (localizedPanelLabel(\"Persp View\")) -mbv $menusOkayInPanels  $panelName;\n\t\t$editorName = $panelName;\n        modelEditor -e \n            -camera \"persp\" \n            -useInteractiveMode 0\n            -displayLights \"default\" \n            -displayAppearance \"smoothShaded\" \n            -activeOnly 0\n            -ignorePanZoom 0\n            -wireframeOnShaded 0\n            -headsUpDisplay 1\n            -selectionHiliteDisplay 1\n            -useDefaultMaterial 0\n            -bufferMode \"double\" \n"
		+ "            -twoSidedLighting 1\n            -backfaceCulling 0\n            -xray 0\n            -jointXray 0\n            -activeComponentsXray 0\n            -displayTextures 0\n            -smoothWireframe 0\n            -lineWidth 1\n            -textureAnisotropic 0\n            -textureHilight 1\n            -textureSampling 2\n            -textureDisplay \"modulate\" \n            -textureMaxSize 16384\n            -fogging 0\n            -fogSource \"fragment\" \n            -fogMode \"linear\" \n            -fogStart 0\n            -fogEnd 100\n            -fogDensity 0.1\n            -fogColor 0.5 0.5 0.5 1 \n            -maxConstantTransparency 1\n            -rendererName \"base_OpenGL_Renderer\" \n            -objectFilterShowInHUD 1\n            -isFiltered 0\n            -colorResolution 256 256 \n            -bumpResolution 512 512 \n            -textureCompression 0\n            -transparencyAlgorithm \"frontAndBackCull\" \n            -transpInShadows 0\n            -cullingOverride \"none\" \n            -lowQualityLighting 0\n            -maximumNumHardwareLights 1\n"
		+ "            -occlusionCulling 0\n            -shadingModel 0\n            -useBaseRenderer 0\n            -useReducedRenderer 0\n            -smallObjectCulling 0\n            -smallObjectThreshold -1 \n            -interactiveDisableShadows 0\n            -interactiveBackFaceCull 0\n            -sortTransparent 1\n            -nurbsCurves 1\n            -nurbsSurfaces 1\n            -polymeshes 1\n            -subdivSurfaces 1\n            -planes 1\n            -lights 1\n            -cameras 1\n            -controlVertices 1\n            -hulls 1\n            -grid 1\n            -imagePlane 1\n            -joints 1\n            -ikHandles 1\n            -deformers 1\n            -dynamics 1\n            -fluids 1\n            -hairSystems 1\n            -follicles 1\n            -nCloths 1\n            -nParticles 1\n            -nRigids 1\n            -dynamicConstraints 1\n            -locators 1\n            -manipulators 1\n            -pluginShapes 1\n            -dimensions 1\n            -handles 1\n            -pivots 1\n            -textures 1\n"
		+ "            -strokes 1\n            -motionTrails 1\n            -clipGhosts 1\n            -greasePencils 1\n            -shadows 0\n            $editorName;\n        modelEditor -e -viewSelected 0 $editorName;\n        modelEditor -e \n            -pluginObjects \"gpuCacheDisplayFilter\" 1 \n            $editorName;\n\t\tif (!$useSceneConfig) {\n\t\t\tpanel -e -l $label $panelName;\n\t\t}\n\t}\n\n\n\t$panelName = `sceneUIReplacement -getNextPanel \"outlinerPanel\" (localizedPanelLabel(\"Outliner\")) `;\n\tif (\"\" == $panelName) {\n\t\tif ($useSceneConfig) {\n\t\t\t$panelName = `outlinerPanel -unParent -l (localizedPanelLabel(\"Outliner\")) -mbv $menusOkayInPanels `;\n\t\t\t$editorName = $panelName;\n            outlinerEditor -e \n                -docTag \"isolOutln_fromSeln\" \n                -showShapes 0\n                -showReferenceNodes 1\n                -showReferenceMembers 1\n                -showAttributes 0\n                -showConnected 0\n                -showAnimCurvesOnly 0\n                -showMuteInfo 1\n                -organizeByLayer 1\n                -showAnimLayerWeight 1\n"
		+ "                -autoExpandLayers 1\n                -autoExpand 0\n                -showDagOnly 0\n                -showAssets 1\n                -showContainedOnly 1\n                -showPublishedAsConnected 0\n                -showContainerContents 1\n                -ignoreDagHierarchy 0\n                -expandConnections 0\n                -showUpstreamCurves 1\n                -showUnitlessCurves 1\n                -showCompounds 1\n                -showLeafs 1\n                -showNumericAttrsOnly 0\n                -highlightActive 1\n                -autoSelectNewObjects 0\n                -doNotSelectNewObjects 0\n                -dropIsParent 1\n                -transmitFilters 0\n                -setFilter \"defaultSetFilter\" \n                -showSetMembers 1\n                -allowMultiSelection 1\n                -alwaysToggleSelect 0\n                -directSelect 0\n                -displayMode \"DAG\" \n                -expandObjects 0\n                -setsIgnoreFilters 1\n                -containersIgnoreFilters 0\n                -editAttrName 0\n"
		+ "                -showAttrValues 0\n                -highlightSecondary 0\n                -showUVAttrsOnly 0\n                -showTextureNodesOnly 0\n                -attrAlphaOrder \"default\" \n                -animLayerFilterOptions \"allAffecting\" \n                -sortOrder \"none\" \n                -longNames 0\n                -niceNames 1\n                -showNamespace 1\n                -showPinIcons 0\n                -mapMotionTrails 0\n                $editorName;\n\t\t}\n\t} else {\n\t\t$label = `panel -q -label $panelName`;\n\t\toutlinerPanel -edit -l (localizedPanelLabel(\"Outliner\")) -mbv $menusOkayInPanels  $panelName;\n\t\t$editorName = $panelName;\n        outlinerEditor -e \n            -docTag \"isolOutln_fromSeln\" \n            -showShapes 0\n            -showReferenceNodes 1\n            -showReferenceMembers 1\n            -showAttributes 0\n            -showConnected 0\n            -showAnimCurvesOnly 0\n            -showMuteInfo 1\n            -organizeByLayer 1\n            -showAnimLayerWeight 1\n            -autoExpandLayers 1\n"
		+ "            -autoExpand 0\n            -showDagOnly 0\n            -showAssets 1\n            -showContainedOnly 1\n            -showPublishedAsConnected 0\n            -showContainerContents 1\n            -ignoreDagHierarchy 0\n            -expandConnections 0\n            -showUpstreamCurves 1\n            -showUnitlessCurves 1\n            -showCompounds 1\n            -showLeafs 1\n            -showNumericAttrsOnly 0\n            -highlightActive 1\n            -autoSelectNewObjects 0\n            -doNotSelectNewObjects 0\n            -dropIsParent 1\n            -transmitFilters 0\n            -setFilter \"defaultSetFilter\" \n            -showSetMembers 1\n            -allowMultiSelection 1\n            -alwaysToggleSelect 0\n            -directSelect 0\n            -displayMode \"DAG\" \n            -expandObjects 0\n            -setsIgnoreFilters 1\n            -containersIgnoreFilters 0\n            -editAttrName 0\n            -showAttrValues 0\n            -highlightSecondary 0\n            -showUVAttrsOnly 0\n            -showTextureNodesOnly 0\n"
		+ "            -attrAlphaOrder \"default\" \n            -animLayerFilterOptions \"allAffecting\" \n            -sortOrder \"none\" \n            -longNames 0\n            -niceNames 1\n            -showNamespace 1\n            -showPinIcons 0\n            -mapMotionTrails 0\n            $editorName;\n\t\tif (!$useSceneConfig) {\n\t\t\tpanel -e -l $label $panelName;\n\t\t}\n\t}\n\n\n\t$panelName = `sceneUIReplacement -getNextScriptedPanel \"graphEditor\" (localizedPanelLabel(\"Graph Editor\")) `;\n\tif (\"\" == $panelName) {\n\t\tif ($useSceneConfig) {\n\t\t\t$panelName = `scriptedPanel -unParent  -type \"graphEditor\" -l (localizedPanelLabel(\"Graph Editor\")) -mbv $menusOkayInPanels `;\n\n\t\t\t$editorName = ($panelName+\"OutlineEd\");\n            outlinerEditor -e \n                -showShapes 1\n                -showReferenceNodes 0\n                -showReferenceMembers 0\n                -showAttributes 1\n                -showConnected 1\n                -showAnimCurvesOnly 1\n                -showMuteInfo 0\n                -organizeByLayer 1\n                -showAnimLayerWeight 1\n"
		+ "                -autoExpandLayers 1\n                -autoExpand 1\n                -showDagOnly 0\n                -showAssets 1\n                -showContainedOnly 0\n                -showPublishedAsConnected 0\n                -showContainerContents 0\n                -ignoreDagHierarchy 0\n                -expandConnections 1\n                -showUpstreamCurves 1\n                -showUnitlessCurves 1\n                -showCompounds 0\n                -showLeafs 1\n                -showNumericAttrsOnly 1\n                -highlightActive 0\n                -autoSelectNewObjects 1\n                -doNotSelectNewObjects 0\n                -dropIsParent 1\n                -transmitFilters 1\n                -setFilter \"0\" \n                -showSetMembers 0\n                -allowMultiSelection 1\n                -alwaysToggleSelect 0\n                -directSelect 0\n                -displayMode \"DAG\" \n                -expandObjects 0\n                -setsIgnoreFilters 1\n                -containersIgnoreFilters 0\n                -editAttrName 0\n"
		+ "                -showAttrValues 0\n                -highlightSecondary 0\n                -showUVAttrsOnly 0\n                -showTextureNodesOnly 0\n                -attrAlphaOrder \"default\" \n                -animLayerFilterOptions \"allAffecting\" \n                -sortOrder \"none\" \n                -longNames 0\n                -niceNames 1\n                -showNamespace 1\n                -showPinIcons 1\n                -mapMotionTrails 1\n                $editorName;\n\n\t\t\t$editorName = ($panelName+\"GraphEd\");\n            animCurveEditor -e \n                -displayKeys 1\n                -displayTangents 0\n                -displayActiveKeys 0\n                -displayActiveKeyTangents 1\n                -displayInfinities 0\n                -autoFit 0\n                -snapTime \"integer\" \n                -snapValue \"none\" \n                -showResults \"off\" \n                -showBufferCurves \"off\" \n                -smoothness \"fine\" \n                -resultSamples 1\n                -resultScreenSamples 0\n                -resultUpdate \"delayed\" \n"
		+ "                -showUpstreamCurves 1\n                -stackedCurves 0\n                -stackedCurvesMin -1\n                -stackedCurvesMax 1\n                -stackedCurvesSpace 0.2\n                -displayNormalized 0\n                -preSelectionHighlight 0\n                -constrainDrag 0\n                -classicMode 1\n                $editorName;\n\t\t}\n\t} else {\n\t\t$label = `panel -q -label $panelName`;\n\t\tscriptedPanel -edit -l (localizedPanelLabel(\"Graph Editor\")) -mbv $menusOkayInPanels  $panelName;\n\n\t\t\t$editorName = ($panelName+\"OutlineEd\");\n            outlinerEditor -e \n                -showShapes 1\n                -showReferenceNodes 0\n                -showReferenceMembers 0\n                -showAttributes 1\n                -showConnected 1\n                -showAnimCurvesOnly 1\n                -showMuteInfo 0\n                -organizeByLayer 1\n                -showAnimLayerWeight 1\n                -autoExpandLayers 1\n                -autoExpand 1\n                -showDagOnly 0\n                -showAssets 1\n"
		+ "                -showContainedOnly 0\n                -showPublishedAsConnected 0\n                -showContainerContents 0\n                -ignoreDagHierarchy 0\n                -expandConnections 1\n                -showUpstreamCurves 1\n                -showUnitlessCurves 1\n                -showCompounds 0\n                -showLeafs 1\n                -showNumericAttrsOnly 1\n                -highlightActive 0\n                -autoSelectNewObjects 1\n                -doNotSelectNewObjects 0\n                -dropIsParent 1\n                -transmitFilters 1\n                -setFilter \"0\" \n                -showSetMembers 0\n                -allowMultiSelection 1\n                -alwaysToggleSelect 0\n                -directSelect 0\n                -displayMode \"DAG\" \n                -expandObjects 0\n                -setsIgnoreFilters 1\n                -containersIgnoreFilters 0\n                -editAttrName 0\n                -showAttrValues 0\n                -highlightSecondary 0\n                -showUVAttrsOnly 0\n                -showTextureNodesOnly 0\n"
		+ "                -attrAlphaOrder \"default\" \n                -animLayerFilterOptions \"allAffecting\" \n                -sortOrder \"none\" \n                -longNames 0\n                -niceNames 1\n                -showNamespace 1\n                -showPinIcons 1\n                -mapMotionTrails 1\n                $editorName;\n\n\t\t\t$editorName = ($panelName+\"GraphEd\");\n            animCurveEditor -e \n                -displayKeys 1\n                -displayTangents 0\n                -displayActiveKeys 0\n                -displayActiveKeyTangents 1\n                -displayInfinities 0\n                -autoFit 0\n                -snapTime \"integer\" \n                -snapValue \"none\" \n                -showResults \"off\" \n                -showBufferCurves \"off\" \n                -smoothness \"fine\" \n                -resultSamples 1\n                -resultScreenSamples 0\n                -resultUpdate \"delayed\" \n                -showUpstreamCurves 1\n                -stackedCurves 0\n                -stackedCurvesMin -1\n                -stackedCurvesMax 1\n"
		+ "                -stackedCurvesSpace 0.2\n                -displayNormalized 0\n                -preSelectionHighlight 0\n                -constrainDrag 0\n                -classicMode 1\n                $editorName;\n\t\tif (!$useSceneConfig) {\n\t\t\tpanel -e -l $label $panelName;\n\t\t}\n\t}\n\n\n\t$panelName = `sceneUIReplacement -getNextScriptedPanel \"dopeSheetPanel\" (localizedPanelLabel(\"Dope Sheet\")) `;\n\tif (\"\" == $panelName) {\n\t\tif ($useSceneConfig) {\n\t\t\t$panelName = `scriptedPanel -unParent  -type \"dopeSheetPanel\" -l (localizedPanelLabel(\"Dope Sheet\")) -mbv $menusOkayInPanels `;\n\n\t\t\t$editorName = ($panelName+\"OutlineEd\");\n            outlinerEditor -e \n                -showShapes 1\n                -showReferenceNodes 0\n                -showReferenceMembers 0\n                -showAttributes 1\n                -showConnected 1\n                -showAnimCurvesOnly 1\n                -showMuteInfo 0\n                -organizeByLayer 1\n                -showAnimLayerWeight 1\n                -autoExpandLayers 1\n                -autoExpand 0\n"
		+ "                -showDagOnly 0\n                -showAssets 1\n                -showContainedOnly 0\n                -showPublishedAsConnected 0\n                -showContainerContents 0\n                -ignoreDagHierarchy 0\n                -expandConnections 1\n                -showUpstreamCurves 1\n                -showUnitlessCurves 0\n                -showCompounds 1\n                -showLeafs 1\n                -showNumericAttrsOnly 1\n                -highlightActive 0\n                -autoSelectNewObjects 0\n                -doNotSelectNewObjects 1\n                -dropIsParent 1\n                -transmitFilters 0\n                -setFilter \"0\" \n                -showSetMembers 0\n                -allowMultiSelection 1\n                -alwaysToggleSelect 0\n                -directSelect 0\n                -displayMode \"DAG\" \n                -expandObjects 0\n                -setsIgnoreFilters 1\n                -containersIgnoreFilters 0\n                -editAttrName 0\n                -showAttrValues 0\n                -highlightSecondary 0\n"
		+ "                -showUVAttrsOnly 0\n                -showTextureNodesOnly 0\n                -attrAlphaOrder \"default\" \n                -animLayerFilterOptions \"allAffecting\" \n                -sortOrder \"none\" \n                -longNames 0\n                -niceNames 1\n                -showNamespace 1\n                -showPinIcons 0\n                -mapMotionTrails 1\n                $editorName;\n\n\t\t\t$editorName = ($panelName+\"DopeSheetEd\");\n            dopeSheetEditor -e \n                -displayKeys 1\n                -displayTangents 0\n                -displayActiveKeys 0\n                -displayActiveKeyTangents 0\n                -displayInfinities 0\n                -autoFit 0\n                -snapTime \"integer\" \n                -snapValue \"none\" \n                -outliner \"dopeSheetPanel1OutlineEd\" \n                -showSummary 1\n                -showScene 0\n                -hierarchyBelow 0\n                -showTicks 1\n                -selectionWindow 0 0 0 0 \n                $editorName;\n\t\t}\n\t} else {\n\t\t$label = `panel -q -label $panelName`;\n"
		+ "\t\tscriptedPanel -edit -l (localizedPanelLabel(\"Dope Sheet\")) -mbv $menusOkayInPanels  $panelName;\n\n\t\t\t$editorName = ($panelName+\"OutlineEd\");\n            outlinerEditor -e \n                -showShapes 1\n                -showReferenceNodes 0\n                -showReferenceMembers 0\n                -showAttributes 1\n                -showConnected 1\n                -showAnimCurvesOnly 1\n                -showMuteInfo 0\n                -organizeByLayer 1\n                -showAnimLayerWeight 1\n                -autoExpandLayers 1\n                -autoExpand 0\n                -showDagOnly 0\n                -showAssets 1\n                -showContainedOnly 0\n                -showPublishedAsConnected 0\n                -showContainerContents 0\n                -ignoreDagHierarchy 0\n                -expandConnections 1\n                -showUpstreamCurves 1\n                -showUnitlessCurves 0\n                -showCompounds 1\n                -showLeafs 1\n                -showNumericAttrsOnly 1\n                -highlightActive 0\n"
		+ "                -autoSelectNewObjects 0\n                -doNotSelectNewObjects 1\n                -dropIsParent 1\n                -transmitFilters 0\n                -setFilter \"0\" \n                -showSetMembers 0\n                -allowMultiSelection 1\n                -alwaysToggleSelect 0\n                -directSelect 0\n                -displayMode \"DAG\" \n                -expandObjects 0\n                -setsIgnoreFilters 1\n                -containersIgnoreFilters 0\n                -editAttrName 0\n                -showAttrValues 0\n                -highlightSecondary 0\n                -showUVAttrsOnly 0\n                -showTextureNodesOnly 0\n                -attrAlphaOrder \"default\" \n                -animLayerFilterOptions \"allAffecting\" \n                -sortOrder \"none\" \n                -longNames 0\n                -niceNames 1\n                -showNamespace 1\n                -showPinIcons 0\n                -mapMotionTrails 1\n                $editorName;\n\n\t\t\t$editorName = ($panelName+\"DopeSheetEd\");\n            dopeSheetEditor -e \n"
		+ "                -displayKeys 1\n                -displayTangents 0\n                -displayActiveKeys 0\n                -displayActiveKeyTangents 0\n                -displayInfinities 0\n                -autoFit 0\n                -snapTime \"integer\" \n                -snapValue \"none\" \n                -outliner \"dopeSheetPanel1OutlineEd\" \n                -showSummary 1\n                -showScene 0\n                -hierarchyBelow 0\n                -showTicks 1\n                -selectionWindow 0 0 0 0 \n                $editorName;\n\t\tif (!$useSceneConfig) {\n\t\t\tpanel -e -l $label $panelName;\n\t\t}\n\t}\n\n\n\t$panelName = `sceneUIReplacement -getNextScriptedPanel \"clipEditorPanel\" (localizedPanelLabel(\"Trax Editor\")) `;\n\tif (\"\" == $panelName) {\n\t\tif ($useSceneConfig) {\n\t\t\t$panelName = `scriptedPanel -unParent  -type \"clipEditorPanel\" -l (localizedPanelLabel(\"Trax Editor\")) -mbv $menusOkayInPanels `;\n\n\t\t\t$editorName = clipEditorNameFromPanel($panelName);\n            clipEditor -e \n                -displayKeys 0\n                -displayTangents 0\n"
		+ "                -displayActiveKeys 0\n                -displayActiveKeyTangents 0\n                -displayInfinities 0\n                -autoFit 0\n                -snapTime \"none\" \n                -snapValue \"none\" \n                -manageSequencer 0 \n                $editorName;\n\t\t}\n\t} else {\n\t\t$label = `panel -q -label $panelName`;\n\t\tscriptedPanel -edit -l (localizedPanelLabel(\"Trax Editor\")) -mbv $menusOkayInPanels  $panelName;\n\n\t\t\t$editorName = clipEditorNameFromPanel($panelName);\n            clipEditor -e \n                -displayKeys 0\n                -displayTangents 0\n                -displayActiveKeys 0\n                -displayActiveKeyTangents 0\n                -displayInfinities 0\n                -autoFit 0\n                -snapTime \"none\" \n                -snapValue \"none\" \n                -manageSequencer 0 \n                $editorName;\n\t\tif (!$useSceneConfig) {\n\t\t\tpanel -e -l $label $panelName;\n\t\t}\n\t}\n\n\n\t$panelName = `sceneUIReplacement -getNextScriptedPanel \"sequenceEditorPanel\" (localizedPanelLabel(\"Camera Sequencer\")) `;\n"
		+ "\tif (\"\" == $panelName) {\n\t\tif ($useSceneConfig) {\n\t\t\t$panelName = `scriptedPanel -unParent  -type \"sequenceEditorPanel\" -l (localizedPanelLabel(\"Camera Sequencer\")) -mbv $menusOkayInPanels `;\n\n\t\t\t$editorName = sequenceEditorNameFromPanel($panelName);\n            clipEditor -e \n                -displayKeys 0\n                -displayTangents 0\n                -displayActiveKeys 0\n                -displayActiveKeyTangents 0\n                -displayInfinities 0\n                -autoFit 0\n                -snapTime \"none\" \n                -snapValue \"none\" \n                -manageSequencer 1 \n                $editorName;\n\t\t}\n\t} else {\n\t\t$label = `panel -q -label $panelName`;\n\t\tscriptedPanel -edit -l (localizedPanelLabel(\"Camera Sequencer\")) -mbv $menusOkayInPanels  $panelName;\n\n\t\t\t$editorName = sequenceEditorNameFromPanel($panelName);\n            clipEditor -e \n                -displayKeys 0\n                -displayTangents 0\n                -displayActiveKeys 0\n                -displayActiveKeyTangents 0\n                -displayInfinities 0\n"
		+ "                -autoFit 0\n                -snapTime \"none\" \n                -snapValue \"none\" \n                -manageSequencer 1 \n                $editorName;\n\t\tif (!$useSceneConfig) {\n\t\t\tpanel -e -l $label $panelName;\n\t\t}\n\t}\n\n\n\t$panelName = `sceneUIReplacement -getNextScriptedPanel \"hyperGraphPanel\" (localizedPanelLabel(\"Hypergraph Hierarchy\")) `;\n\tif (\"\" == $panelName) {\n\t\tif ($useSceneConfig) {\n\t\t\t$panelName = `scriptedPanel -unParent  -type \"hyperGraphPanel\" -l (localizedPanelLabel(\"Hypergraph Hierarchy\")) -mbv $menusOkayInPanels `;\n\n\t\t\t$editorName = ($panelName+\"HyperGraphEd\");\n            hyperGraph -e \n                -graphLayoutStyle \"hierarchicalLayout\" \n                -orientation \"horiz\" \n                -mergeConnections 0\n                -zoom 1\n                -animateTransition 0\n                -showRelationships 1\n                -showShapes 0\n                -showDeformers 0\n                -showExpressions 0\n                -showConstraints 0\n                -showConnectionFromSelected 0\n"
		+ "                -showConnectionToSelected 0\n                -showUnderworld 0\n                -showInvisible 0\n                -transitionFrames 1\n                -opaqueContainers 0\n                -freeform 0\n                -imagePosition 0 0 \n                -imageScale 1\n                -imageEnabled 0\n                -graphType \"DAG\" \n                -heatMapDisplay 0\n                -updateSelection 1\n                -updateNodeAdded 1\n                -useDrawOverrideColor 0\n                -limitGraphTraversal -1\n                -range 0 0 \n                -iconSize \"smallIcons\" \n                -showCachedConnections 0\n                $editorName;\n\t\t}\n\t} else {\n\t\t$label = `panel -q -label $panelName`;\n\t\tscriptedPanel -edit -l (localizedPanelLabel(\"Hypergraph Hierarchy\")) -mbv $menusOkayInPanels  $panelName;\n\n\t\t\t$editorName = ($panelName+\"HyperGraphEd\");\n            hyperGraph -e \n                -graphLayoutStyle \"hierarchicalLayout\" \n                -orientation \"horiz\" \n                -mergeConnections 0\n"
		+ "                -zoom 1\n                -animateTransition 0\n                -showRelationships 1\n                -showShapes 0\n                -showDeformers 0\n                -showExpressions 0\n                -showConstraints 0\n                -showConnectionFromSelected 0\n                -showConnectionToSelected 0\n                -showUnderworld 0\n                -showInvisible 0\n                -transitionFrames 1\n                -opaqueContainers 0\n                -freeform 0\n                -imagePosition 0 0 \n                -imageScale 1\n                -imageEnabled 0\n                -graphType \"DAG\" \n                -heatMapDisplay 0\n                -updateSelection 1\n                -updateNodeAdded 1\n                -useDrawOverrideColor 0\n                -limitGraphTraversal -1\n                -range 0 0 \n                -iconSize \"smallIcons\" \n                -showCachedConnections 0\n                $editorName;\n\t\tif (!$useSceneConfig) {\n\t\t\tpanel -e -l $label $panelName;\n\t\t}\n\t}\n\n\n\t$panelName = `sceneUIReplacement -getNextScriptedPanel \"hyperShadePanel\" (localizedPanelLabel(\"Hypershade\")) `;\n"
		+ "\tif (\"\" == $panelName) {\n\t\tif ($useSceneConfig) {\n\t\t\t$panelName = `scriptedPanel -unParent  -type \"hyperShadePanel\" -l (localizedPanelLabel(\"Hypershade\")) -mbv $menusOkayInPanels `;\n\t\t}\n\t} else {\n\t\t$label = `panel -q -label $panelName`;\n\t\tscriptedPanel -edit -l (localizedPanelLabel(\"Hypershade\")) -mbv $menusOkayInPanels  $panelName;\n\t\tif (!$useSceneConfig) {\n\t\t\tpanel -e -l $label $panelName;\n\t\t}\n\t}\n\n\n\t$panelName = `sceneUIReplacement -getNextScriptedPanel \"visorPanel\" (localizedPanelLabel(\"Visor\")) `;\n\tif (\"\" == $panelName) {\n\t\tif ($useSceneConfig) {\n\t\t\t$panelName = `scriptedPanel -unParent  -type \"visorPanel\" -l (localizedPanelLabel(\"Visor\")) -mbv $menusOkayInPanels `;\n\t\t}\n\t} else {\n\t\t$label = `panel -q -label $panelName`;\n\t\tscriptedPanel -edit -l (localizedPanelLabel(\"Visor\")) -mbv $menusOkayInPanels  $panelName;\n\t\tif (!$useSceneConfig) {\n\t\t\tpanel -e -l $label $panelName;\n\t\t}\n\t}\n\n\n\t$panelName = `sceneUIReplacement -getNextScriptedPanel \"nodeEditorPanel\" (localizedPanelLabel(\"Node Editor\")) `;\n\tif (\"\" == $panelName) {\n"
		+ "\t\tif ($useSceneConfig) {\n\t\t\t$panelName = `scriptedPanel -unParent  -type \"nodeEditorPanel\" -l (localizedPanelLabel(\"Node Editor\")) -mbv $menusOkayInPanels `;\n\n\t\t\t$editorName = ($panelName+\"NodeEditorEd\");\n            nodeEditor -e \n                -allAttributes 0\n                -allNodes 0\n                -autoSizeNodes 1\n                -createNodeCommand \"nodeEdCreateNodeCommand\" \n                -defaultPinnedState 0\n                -ignoreAssets 1\n                -additiveGraphingMode 0\n                -settingsChangedCallback \"nodeEdSyncControls\" \n                -traversalDepthLimit -1\n                -keyPressCommand \"nodeEdKeyPressCommand\" \n                -keyReleaseCommand \"nodeEdKeyReleaseCommand\" \n                -nodeTitleMode \"name\" \n                -gridSnap 0\n                -gridVisibility 1\n                -popupMenuScript \"nodeEdBuildPanelMenus\" \n                -island 0\n                -showNamespace 1\n                -showShapes 1\n                -showSGShapes 0\n                -showTransforms 1\n"
		+ "                -syncedSelection 1\n                -extendToShapes 1\n                $editorName;;\n\t\t}\n\t} else {\n\t\t$label = `panel -q -label $panelName`;\n\t\tscriptedPanel -edit -l (localizedPanelLabel(\"Node Editor\")) -mbv $menusOkayInPanels  $panelName;\n\n\t\t\t$editorName = ($panelName+\"NodeEditorEd\");\n            nodeEditor -e \n                -allAttributes 0\n                -allNodes 0\n                -autoSizeNodes 1\n                -createNodeCommand \"nodeEdCreateNodeCommand\" \n                -defaultPinnedState 0\n                -ignoreAssets 1\n                -additiveGraphingMode 0\n                -settingsChangedCallback \"nodeEdSyncControls\" \n                -traversalDepthLimit -1\n                -keyPressCommand \"nodeEdKeyPressCommand\" \n                -keyReleaseCommand \"nodeEdKeyReleaseCommand\" \n                -nodeTitleMode \"name\" \n                -gridSnap 0\n                -gridVisibility 1\n                -popupMenuScript \"nodeEdBuildPanelMenus\" \n                -island 0\n                -showNamespace 1\n"
		+ "                -showShapes 1\n                -showSGShapes 0\n                -showTransforms 1\n                -syncedSelection 1\n                -extendToShapes 1\n                $editorName;;\n\t\tif (!$useSceneConfig) {\n\t\t\tpanel -e -l $label $panelName;\n\t\t}\n\t}\n\n\n\t$panelName = `sceneUIReplacement -getNextScriptedPanel \"createNodePanel\" (localizedPanelLabel(\"Create Node\")) `;\n\tif (\"\" == $panelName) {\n\t\tif ($useSceneConfig) {\n\t\t\t$panelName = `scriptedPanel -unParent  -type \"createNodePanel\" -l (localizedPanelLabel(\"Create Node\")) -mbv $menusOkayInPanels `;\n\t\t}\n\t} else {\n\t\t$label = `panel -q -label $panelName`;\n\t\tscriptedPanel -edit -l (localizedPanelLabel(\"Create Node\")) -mbv $menusOkayInPanels  $panelName;\n\t\tif (!$useSceneConfig) {\n\t\t\tpanel -e -l $label $panelName;\n\t\t}\n\t}\n\n\n\t$panelName = `sceneUIReplacement -getNextScriptedPanel \"polyTexturePlacementPanel\" (localizedPanelLabel(\"UV Texture Editor\")) `;\n\tif (\"\" == $panelName) {\n\t\tif ($useSceneConfig) {\n\t\t\t$panelName = `scriptedPanel -unParent  -type \"polyTexturePlacementPanel\" -l (localizedPanelLabel(\"UV Texture Editor\")) -mbv $menusOkayInPanels `;\n"
		+ "\t\t}\n\t} else {\n\t\t$label = `panel -q -label $panelName`;\n\t\tscriptedPanel -edit -l (localizedPanelLabel(\"UV Texture Editor\")) -mbv $menusOkayInPanels  $panelName;\n\t\tif (!$useSceneConfig) {\n\t\t\tpanel -e -l $label $panelName;\n\t\t}\n\t}\n\n\n\t$panelName = `sceneUIReplacement -getNextScriptedPanel \"renderWindowPanel\" (localizedPanelLabel(\"Render View\")) `;\n\tif (\"\" == $panelName) {\n\t\tif ($useSceneConfig) {\n\t\t\t$panelName = `scriptedPanel -unParent  -type \"renderWindowPanel\" -l (localizedPanelLabel(\"Render View\")) -mbv $menusOkayInPanels `;\n\t\t}\n\t} else {\n\t\t$label = `panel -q -label $panelName`;\n\t\tscriptedPanel -edit -l (localizedPanelLabel(\"Render View\")) -mbv $menusOkayInPanels  $panelName;\n\t\tif (!$useSceneConfig) {\n\t\t\tpanel -e -l $label $panelName;\n\t\t}\n\t}\n\n\n\t$panelName = `sceneUIReplacement -getNextPanel \"blendShapePanel\" (localizedPanelLabel(\"Blend Shape\")) `;\n\tif (\"\" == $panelName) {\n\t\tif ($useSceneConfig) {\n\t\t\tblendShapePanel -unParent -l (localizedPanelLabel(\"Blend Shape\")) -mbv $menusOkayInPanels ;\n\t\t}\n\t} else {\n\t\t$label = `panel -q -label $panelName`;\n"
		+ "\t\tblendShapePanel -edit -l (localizedPanelLabel(\"Blend Shape\")) -mbv $menusOkayInPanels  $panelName;\n\t\tif (!$useSceneConfig) {\n\t\t\tpanel -e -l $label $panelName;\n\t\t}\n\t}\n\n\n\t$panelName = `sceneUIReplacement -getNextScriptedPanel \"dynRelEdPanel\" (localizedPanelLabel(\"Dynamic Relationships\")) `;\n\tif (\"\" == $panelName) {\n\t\tif ($useSceneConfig) {\n\t\t\t$panelName = `scriptedPanel -unParent  -type \"dynRelEdPanel\" -l (localizedPanelLabel(\"Dynamic Relationships\")) -mbv $menusOkayInPanels `;\n\t\t}\n\t} else {\n\t\t$label = `panel -q -label $panelName`;\n\t\tscriptedPanel -edit -l (localizedPanelLabel(\"Dynamic Relationships\")) -mbv $menusOkayInPanels  $panelName;\n\t\tif (!$useSceneConfig) {\n\t\t\tpanel -e -l $label $panelName;\n\t\t}\n\t}\n\n\n\t$panelName = `sceneUIReplacement -getNextScriptedPanel \"relationshipPanel\" (localizedPanelLabel(\"Relationship Editor\")) `;\n\tif (\"\" == $panelName) {\n\t\tif ($useSceneConfig) {\n\t\t\t$panelName = `scriptedPanel -unParent  -type \"relationshipPanel\" -l (localizedPanelLabel(\"Relationship Editor\")) -mbv $menusOkayInPanels `;\n"
		+ "\t\t}\n\t} else {\n\t\t$label = `panel -q -label $panelName`;\n\t\tscriptedPanel -edit -l (localizedPanelLabel(\"Relationship Editor\")) -mbv $menusOkayInPanels  $panelName;\n\t\tif (!$useSceneConfig) {\n\t\t\tpanel -e -l $label $panelName;\n\t\t}\n\t}\n\n\n\t$panelName = `sceneUIReplacement -getNextScriptedPanel \"referenceEditorPanel\" (localizedPanelLabel(\"Reference Editor\")) `;\n\tif (\"\" == $panelName) {\n\t\tif ($useSceneConfig) {\n\t\t\t$panelName = `scriptedPanel -unParent  -type \"referenceEditorPanel\" -l (localizedPanelLabel(\"Reference Editor\")) -mbv $menusOkayInPanels `;\n\t\t}\n\t} else {\n\t\t$label = `panel -q -label $panelName`;\n\t\tscriptedPanel -edit -l (localizedPanelLabel(\"Reference Editor\")) -mbv $menusOkayInPanels  $panelName;\n\t\tif (!$useSceneConfig) {\n\t\t\tpanel -e -l $label $panelName;\n\t\t}\n\t}\n\n\n\t$panelName = `sceneUIReplacement -getNextScriptedPanel \"componentEditorPanel\" (localizedPanelLabel(\"Component Editor\")) `;\n\tif (\"\" == $panelName) {\n\t\tif ($useSceneConfig) {\n\t\t\t$panelName = `scriptedPanel -unParent  -type \"componentEditorPanel\" -l (localizedPanelLabel(\"Component Editor\")) -mbv $menusOkayInPanels `;\n"
		+ "\t\t}\n\t} else {\n\t\t$label = `panel -q -label $panelName`;\n\t\tscriptedPanel -edit -l (localizedPanelLabel(\"Component Editor\")) -mbv $menusOkayInPanels  $panelName;\n\t\tif (!$useSceneConfig) {\n\t\t\tpanel -e -l $label $panelName;\n\t\t}\n\t}\n\n\n\t$panelName = `sceneUIReplacement -getNextScriptedPanel \"dynPaintScriptedPanelType\" (localizedPanelLabel(\"Paint Effects\")) `;\n\tif (\"\" == $panelName) {\n\t\tif ($useSceneConfig) {\n\t\t\t$panelName = `scriptedPanel -unParent  -type \"dynPaintScriptedPanelType\" -l (localizedPanelLabel(\"Paint Effects\")) -mbv $menusOkayInPanels `;\n\t\t}\n\t} else {\n\t\t$label = `panel -q -label $panelName`;\n\t\tscriptedPanel -edit -l (localizedPanelLabel(\"Paint Effects\")) -mbv $menusOkayInPanels  $panelName;\n\t\tif (!$useSceneConfig) {\n\t\t\tpanel -e -l $label $panelName;\n\t\t}\n\t}\n\n\n\t$panelName = `sceneUIReplacement -getNextScriptedPanel \"scriptEditorPanel\" (localizedPanelLabel(\"Script Editor\")) `;\n\tif (\"\" == $panelName) {\n\t\tif ($useSceneConfig) {\n\t\t\t$panelName = `scriptedPanel -unParent  -type \"scriptEditorPanel\" -l (localizedPanelLabel(\"Script Editor\")) -mbv $menusOkayInPanels `;\n"
		+ "\t\t}\n\t} else {\n\t\t$label = `panel -q -label $panelName`;\n\t\tscriptedPanel -edit -l (localizedPanelLabel(\"Script Editor\")) -mbv $menusOkayInPanels  $panelName;\n\t\tif (!$useSceneConfig) {\n\t\t\tpanel -e -l $label $panelName;\n\t\t}\n\t}\n\n\n\tif ($useSceneConfig) {\n        string $configName = `getPanel -cwl (localizedPanelLabel(\"Current Layout\"))`;\n        if (\"\" != $configName) {\n\t\t\tpanelConfiguration -edit -label (localizedPanelLabel(\"Current Layout\")) \n\t\t\t\t-defaultImage \"\"\n\t\t\t\t-image \"\"\n\t\t\t\t-sc false\n\t\t\t\t-configString \"global string $gMainPane; paneLayout -e -cn \\\"vertical2\\\" -ps 1 24 100 -ps 2 76 100 $gMainPane;\"\n\t\t\t\t-removeAllPanels\n\t\t\t\t-ap false\n\t\t\t\t\t(localizedPanelLabel(\"Outliner\")) \n\t\t\t\t\t\"outlinerPanel\"\n"
		+ "\t\t\t\t\t\"$panelName = `outlinerPanel -unParent -l (localizedPanelLabel(\\\"Outliner\\\")) -mbv $menusOkayInPanels `;\\n$editorName = $panelName;\\noutlinerEditor -e \\n    -docTag \\\"isolOutln_fromSeln\\\" \\n    -showShapes 0\\n    -showReferenceNodes 1\\n    -showReferenceMembers 1\\n    -showAttributes 0\\n    -showConnected 0\\n    -showAnimCurvesOnly 0\\n    -showMuteInfo 1\\n    -organizeByLayer 1\\n    -showAnimLayerWeight 1\\n    -autoExpandLayers 1\\n    -autoExpand 0\\n    -showDagOnly 0\\n    -showAssets 1\\n    -showContainedOnly 1\\n    -showPublishedAsConnected 0\\n    -showContainerContents 1\\n    -ignoreDagHierarchy 0\\n    -expandConnections 0\\n    -showUpstreamCurves 1\\n    -showUnitlessCurves 1\\n    -showCompounds 1\\n    -showLeafs 1\\n    -showNumericAttrsOnly 0\\n    -highlightActive 1\\n    -autoSelectNewObjects 0\\n    -doNotSelectNewObjects 0\\n    -dropIsParent 1\\n    -transmitFilters 0\\n    -setFilter \\\"defaultSetFilter\\\" \\n    -showSetMembers 1\\n    -allowMultiSelection 1\\n    -alwaysToggleSelect 0\\n    -directSelect 0\\n    -displayMode \\\"DAG\\\" \\n    -expandObjects 0\\n    -setsIgnoreFilters 1\\n    -containersIgnoreFilters 0\\n    -editAttrName 0\\n    -showAttrValues 0\\n    -highlightSecondary 0\\n    -showUVAttrsOnly 0\\n    -showTextureNodesOnly 0\\n    -attrAlphaOrder \\\"default\\\" \\n    -animLayerFilterOptions \\\"allAffecting\\\" \\n    -sortOrder \\\"none\\\" \\n    -longNames 0\\n    -niceNames 1\\n    -showNamespace 1\\n    -showPinIcons 0\\n    -mapMotionTrails 0\\n    $editorName\"\n"
		+ "\t\t\t\t\t\"outlinerPanel -edit -l (localizedPanelLabel(\\\"Outliner\\\")) -mbv $menusOkayInPanels  $panelName;\\n$editorName = $panelName;\\noutlinerEditor -e \\n    -docTag \\\"isolOutln_fromSeln\\\" \\n    -showShapes 0\\n    -showReferenceNodes 1\\n    -showReferenceMembers 1\\n    -showAttributes 0\\n    -showConnected 0\\n    -showAnimCurvesOnly 0\\n    -showMuteInfo 1\\n    -organizeByLayer 1\\n    -showAnimLayerWeight 1\\n    -autoExpandLayers 1\\n    -autoExpand 0\\n    -showDagOnly 0\\n    -showAssets 1\\n    -showContainedOnly 1\\n    -showPublishedAsConnected 0\\n    -showContainerContents 1\\n    -ignoreDagHierarchy 0\\n    -expandConnections 0\\n    -showUpstreamCurves 1\\n    -showUnitlessCurves 1\\n    -showCompounds 1\\n    -showLeafs 1\\n    -showNumericAttrsOnly 0\\n    -highlightActive 1\\n    -autoSelectNewObjects 0\\n    -doNotSelectNewObjects 0\\n    -dropIsParent 1\\n    -transmitFilters 0\\n    -setFilter \\\"defaultSetFilter\\\" \\n    -showSetMembers 1\\n    -allowMultiSelection 1\\n    -alwaysToggleSelect 0\\n    -directSelect 0\\n    -displayMode \\\"DAG\\\" \\n    -expandObjects 0\\n    -setsIgnoreFilters 1\\n    -containersIgnoreFilters 0\\n    -editAttrName 0\\n    -showAttrValues 0\\n    -highlightSecondary 0\\n    -showUVAttrsOnly 0\\n    -showTextureNodesOnly 0\\n    -attrAlphaOrder \\\"default\\\" \\n    -animLayerFilterOptions \\\"allAffecting\\\" \\n    -sortOrder \\\"none\\\" \\n    -longNames 0\\n    -niceNames 1\\n    -showNamespace 1\\n    -showPinIcons 0\\n    -mapMotionTrails 0\\n    $editorName\"\n"
		+ "\t\t\t\t-ap false\n\t\t\t\t\t(localizedPanelLabel(\"Persp View\")) \n\t\t\t\t\t\"modelPanel\"\n"
		+ "\t\t\t\t\t\"$panelName = `modelPanel -unParent -l (localizedPanelLabel(\\\"Persp View\\\")) -mbv $menusOkayInPanels `;\\n$editorName = $panelName;\\nmodelEditor -e \\n    -cam `findStartUpCamera persp` \\n    -useInteractiveMode 0\\n    -displayLights \\\"default\\\" \\n    -displayAppearance \\\"smoothShaded\\\" \\n    -activeOnly 0\\n    -ignorePanZoom 0\\n    -wireframeOnShaded 0\\n    -headsUpDisplay 1\\n    -selectionHiliteDisplay 1\\n    -useDefaultMaterial 0\\n    -bufferMode \\\"double\\\" \\n    -twoSidedLighting 1\\n    -backfaceCulling 0\\n    -xray 0\\n    -jointXray 0\\n    -activeComponentsXray 0\\n    -displayTextures 0\\n    -smoothWireframe 0\\n    -lineWidth 1\\n    -textureAnisotropic 0\\n    -textureHilight 1\\n    -textureSampling 2\\n    -textureDisplay \\\"modulate\\\" \\n    -textureMaxSize 16384\\n    -fogging 0\\n    -fogSource \\\"fragment\\\" \\n    -fogMode \\\"linear\\\" \\n    -fogStart 0\\n    -fogEnd 100\\n    -fogDensity 0.1\\n    -fogColor 0.5 0.5 0.5 1 \\n    -maxConstantTransparency 1\\n    -rendererName \\\"base_OpenGL_Renderer\\\" \\n    -objectFilterShowInHUD 1\\n    -isFiltered 0\\n    -colorResolution 256 256 \\n    -bumpResolution 512 512 \\n    -textureCompression 0\\n    -transparencyAlgorithm \\\"frontAndBackCull\\\" \\n    -transpInShadows 0\\n    -cullingOverride \\\"none\\\" \\n    -lowQualityLighting 0\\n    -maximumNumHardwareLights 1\\n    -occlusionCulling 0\\n    -shadingModel 0\\n    -useBaseRenderer 0\\n    -useReducedRenderer 0\\n    -smallObjectCulling 0\\n    -smallObjectThreshold -1 \\n    -interactiveDisableShadows 0\\n    -interactiveBackFaceCull 0\\n    -sortTransparent 1\\n    -nurbsCurves 1\\n    -nurbsSurfaces 1\\n    -polymeshes 1\\n    -subdivSurfaces 1\\n    -planes 1\\n    -lights 1\\n    -cameras 1\\n    -controlVertices 1\\n    -hulls 1\\n    -grid 1\\n    -imagePlane 1\\n    -joints 1\\n    -ikHandles 1\\n    -deformers 1\\n    -dynamics 1\\n    -fluids 1\\n    -hairSystems 1\\n    -follicles 1\\n    -nCloths 1\\n    -nParticles 1\\n    -nRigids 1\\n    -dynamicConstraints 1\\n    -locators 1\\n    -manipulators 1\\n    -pluginShapes 1\\n    -dimensions 1\\n    -handles 1\\n    -pivots 1\\n    -textures 1\\n    -strokes 1\\n    -motionTrails 1\\n    -clipGhosts 1\\n    -greasePencils 1\\n    -shadows 0\\n    $editorName;\\nmodelEditor -e -viewSelected 0 $editorName;\\nmodelEditor -e \\n    -pluginObjects \\\"gpuCacheDisplayFilter\\\" 1 \\n    $editorName\"\n"
		+ "\t\t\t\t\t\"modelPanel -edit -l (localizedPanelLabel(\\\"Persp View\\\")) -mbv $menusOkayInPanels  $panelName;\\n$editorName = $panelName;\\nmodelEditor -e \\n    -cam `findStartUpCamera persp` \\n    -useInteractiveMode 0\\n    -displayLights \\\"default\\\" \\n    -displayAppearance \\\"smoothShaded\\\" \\n    -activeOnly 0\\n    -ignorePanZoom 0\\n    -wireframeOnShaded 0\\n    -headsUpDisplay 1\\n    -selectionHiliteDisplay 1\\n    -useDefaultMaterial 0\\n    -bufferMode \\\"double\\\" \\n    -twoSidedLighting 1\\n    -backfaceCulling 0\\n    -xray 0\\n    -jointXray 0\\n    -activeComponentsXray 0\\n    -displayTextures 0\\n    -smoothWireframe 0\\n    -lineWidth 1\\n    -textureAnisotropic 0\\n    -textureHilight 1\\n    -textureSampling 2\\n    -textureDisplay \\\"modulate\\\" \\n    -textureMaxSize 16384\\n    -fogging 0\\n    -fogSource \\\"fragment\\\" \\n    -fogMode \\\"linear\\\" \\n    -fogStart 0\\n    -fogEnd 100\\n    -fogDensity 0.1\\n    -fogColor 0.5 0.5 0.5 1 \\n    -maxConstantTransparency 1\\n    -rendererName \\\"base_OpenGL_Renderer\\\" \\n    -objectFilterShowInHUD 1\\n    -isFiltered 0\\n    -colorResolution 256 256 \\n    -bumpResolution 512 512 \\n    -textureCompression 0\\n    -transparencyAlgorithm \\\"frontAndBackCull\\\" \\n    -transpInShadows 0\\n    -cullingOverride \\\"none\\\" \\n    -lowQualityLighting 0\\n    -maximumNumHardwareLights 1\\n    -occlusionCulling 0\\n    -shadingModel 0\\n    -useBaseRenderer 0\\n    -useReducedRenderer 0\\n    -smallObjectCulling 0\\n    -smallObjectThreshold -1 \\n    -interactiveDisableShadows 0\\n    -interactiveBackFaceCull 0\\n    -sortTransparent 1\\n    -nurbsCurves 1\\n    -nurbsSurfaces 1\\n    -polymeshes 1\\n    -subdivSurfaces 1\\n    -planes 1\\n    -lights 1\\n    -cameras 1\\n    -controlVertices 1\\n    -hulls 1\\n    -grid 1\\n    -imagePlane 1\\n    -joints 1\\n    -ikHandles 1\\n    -deformers 1\\n    -dynamics 1\\n    -fluids 1\\n    -hairSystems 1\\n    -follicles 1\\n    -nCloths 1\\n    -nParticles 1\\n    -nRigids 1\\n    -dynamicConstraints 1\\n    -locators 1\\n    -manipulators 1\\n    -pluginShapes 1\\n    -dimensions 1\\n    -handles 1\\n    -pivots 1\\n    -textures 1\\n    -strokes 1\\n    -motionTrails 1\\n    -clipGhosts 1\\n    -greasePencils 1\\n    -shadows 0\\n    $editorName;\\nmodelEditor -e -viewSelected 0 $editorName;\\nmodelEditor -e \\n    -pluginObjects \\\"gpuCacheDisplayFilter\\\" 1 \\n    $editorName\"\n"
		+ "\t\t\t\t$configName;\n\n            setNamedPanelLayout (localizedPanelLabel(\"Current Layout\"));\n        }\n\n        panelHistory -e -clear mainPanelHistory;\n        setFocus `paneLayout -q -p1 $gMainPane`;\n        sceneUIReplacement -deleteRemaining;\n        sceneUIReplacement -clear;\n\t}\n\n\ngrid -spacing 5 -size 12 -divisions 5 -displayAxes yes -displayGridLines yes -displayDivisionLines yes -displayPerspectiveLabels no -displayOrthographicLabels no -displayAxesBold yes -perspectiveLabelPosition axis -orthographicLabelPosition edge;\nviewManip -drawCompass 0 -compassAngle 0 -frontParameters \"\" -homeParameters \"\" -selectionLockParameters \"\";\n}\n");
	setAttr ".st" 3;
createNode script -n "sceneConfigurationScriptNode";
	setAttr ".b" -type "string" "playbackOptions -min 1 -max 24 -ast 1 -aet 48 ";
	setAttr ".st" 6;
createNode lambert -n "lambert2";
	setAttr ".c" -type "float3" 0.82050812 0.82050812 0.82050812 ;
createNode shadingEngine -n "lambert2SG";
	setAttr ".ihi" 0;
	setAttr ".ro" yes;
createNode materialInfo -n "materialInfo1";
createNode groupId -n "groupId2";
	setAttr ".ihi" 0;
createNode groupId -n "groupId3";
	setAttr ".ihi" 0;
createNode groupId -n "groupId4";
	setAttr ".ihi" 0;
select -ne :time1;
	setAttr ".o" 1;
	setAttr ".unw" 1;
select -ne :renderPartition;
	setAttr -s 3 ".st";
select -ne :initialShadingGroup;
	setAttr -s 5 ".dsm";
	setAttr ".ro" yes;
	setAttr -s 2 ".gn";
select -ne :initialParticleSE;
	setAttr ".ro" yes;
select -ne :defaultShaderList1;
	setAttr -s 3 ".s";
select -ne :postProcessList1;
	setAttr -s 2 ".p";
select -ne :defaultRenderingList1;
select -ne :renderGlobalsList1;
select -ne :defaultResolution;
	setAttr ".pa" 1;
select -ne :hardwareRenderGlobals;
	setAttr ".ctrs" 256;
	setAttr ".btrs" 512;
select -ne :hardwareRenderingGlobals;
	setAttr ".otfna" -type "stringArray" 18 "NURBS Curves" "NURBS Surfaces" "Polygons" "Subdiv Surfaces" "Particles" "Fluids" "Image Planes" "UI:" "Lights" "Cameras" "Locators" "Joints" "IK Handles" "Deformers" "Motion Trails" "Components" "Misc. UI" "Ornaments"  ;
	setAttr ".otfva" -type "Int32Array" 18 0 1 1 1 1 1
		 1 0 0 0 0 0 0 0 0 0 0 0 ;
select -ne :defaultHardwareRenderGlobals;
	setAttr ".fn" -type "string" "im";
	setAttr ".res" -type "string" "ntsc_4d 646 485 1.333";
select -ne :ikSystem;
	setAttr -s 4 ".sol";
connectAttr "groupId3.id" "pCubeShape4.iog.og[0].gid";
connectAttr ":initialShadingGroup.mwc" "pCubeShape4.iog.og[0].gco";
connectAttr "groupId4.id" "pCubeShape4.iog.og[1].gid";
connectAttr "lambert2SG.mwc" "pCubeShape4.iog.og[1].gco";
connectAttr "groupId2.id" "pCubeShape4.ciog.cog[0].cgid";
relationship "link" ":lightLinker1" ":initialShadingGroup.message" ":defaultLightSet.message";
relationship "link" ":lightLinker1" ":initialParticleSE.message" ":defaultLightSet.message";
relationship "link" ":lightLinker1" "lambert2SG.message" ":defaultLightSet.message";
relationship "shadowLink" ":lightLinker1" ":initialShadingGroup.message" ":defaultLightSet.message";
relationship "shadowLink" ":lightLinker1" ":initialParticleSE.message" ":defaultLightSet.message";
relationship "shadowLink" ":lightLinker1" "lambert2SG.message" ":defaultLightSet.message";
connectAttr "layerManager.dli[0]" "defaultLayer.id";
connectAttr "renderLayerManager.rlmi[0]" "defaultRenderLayer.rlid";
connectAttr "lambert2.oc" "lambert2SG.ss";
connectAttr "groupId4.msg" "lambert2SG.gn" -na;
connectAttr "pCubeShape4.iog.og[1]" "lambert2SG.dsm" -na;
connectAttr "lambert2SG.msg" "materialInfo1.sg";
connectAttr "lambert2.msg" "materialInfo1.m";
connectAttr "lambert2SG.pa" ":renderPartition.st" -na;
connectAttr "PlugShape.iog" ":initialShadingGroup.dsm" -na;
connectAttr "pCubeShape2.iog" ":initialShadingGroup.dsm" -na;
connectAttr "pCubeShape3.iog" ":initialShadingGroup.dsm" -na;
connectAttr "pCubeShape4.ciog.cog[0]" ":initialShadingGroup.dsm" -na;
connectAttr "pCubeShape4.iog.og[0]" ":initialShadingGroup.dsm" -na;
connectAttr "groupId2.msg" ":initialShadingGroup.gn" -na;
connectAttr "groupId3.msg" ":initialShadingGroup.gn" -na;
connectAttr "lambert2.msg" ":defaultShaderList1.s" -na;
connectAttr "defaultRenderLayer.msg" ":defaultRenderingList1.r" -na;
// End of plug.ma
